Comment,Designator,Footprint,LCSC Part Number
10uF,"C9,C8",C_1206_3216Metric_Pad1.33x1.80mm_HandSolder,C13585
24LC01,U4,SOIC-8_5.275x5.275mm_P1.27mm,C5452
1nF,"C3,C2,C4",C_0402_1005Metric_Pad0.74x0.62mm_HandSolder,C1523
TL072,U2,SOIC-8_3.9x4.9mm_P1.27mm,C6961
BSS138,"Q3,Q2,Q1",SOT-23,C7420339
USER1,SW3,SW_Push_1P1T_XKB_TS-1187A,C318884
10k,"R7,R4,R14,R12,R16,R3,R13,R6,R5,R15",R_0402_1005Metric_Pad0.72x0.64mm_HandSolder,C25744
4.7k,"R11,R10",R_0402_1005Metric_Pad0.72x0.64mm_HandSolder,C25900
PCA9555D,U5,SOIC-24W_7.5x15.4mm_P1.27mm,C133183
470,R9,R_0402_1005Metric_Pad0.72x0.64mm_HandSolder,C25117
1uF,C1,C_0805_2012Metric_Pad1.18x1.45mm_HandSolder,C28323
100k,"R1,R2",R_0402_1005Metric_Pad0.72x0.64mm_HandSolder,C25741
USER2,SW4,SW_Push_1P1T_XKB_TS-1187A,C318884
100nF,"C7,C6,C10,C11",C_0402_1005Metric_Pad0.74x0.62mm_HandSolder,C1525
USER0,SW2,SW_Push_1P1T_XKB_TS-1187A,C318884
1uF,C5,C_0402_1005Metric_Pad0.74x0.62mm_HandSolder,C52923
RESET,SW1,SW_Push_1P1T_XKB_TS-1187A,C318884
LM386,U3,SOIC-8_3.9x4.9mm_P1.27mm,C23573
10,R8,R_0402_1005Metric_Pad0.72x0.64mm_HandSolder,C25077
