G04 #@! TF.GenerationSoftware,KiCad,Pcbnew,8.0.2*
G04 #@! TF.CreationDate,2024-09-18T00:29:33-07:00*
G04 #@! TF.ProjectId,digits,64696769-7473-42e6-9b69-6361645f7063,rev?*
G04 #@! TF.SameCoordinates,Original*
G04 #@! TF.FileFunction,Soldermask,Top*
G04 #@! TF.FilePolarity,Negative*
%FSLAX46Y46*%
G04 Gerber Fmt 4.6, Leading zero omitted, Abs format (unit mm)*
G04 Created by KiCad (PCBNEW 8.0.2) date 2024-09-18 00:29:33*
%MOMM*%
%LPD*%
G01*
G04 APERTURE LIST*
G04 Aperture macros list*
%AMRoundRect*
0 Rectangle with rounded corners*
0 $1 Rounding radius*
0 $2 $3 $4 $5 $6 $7 $8 $9 X,Y pos of 4 corners*
0 Add a 4 corners polygon primitive as box body*
4,1,4,$2,$3,$4,$5,$6,$7,$8,$9,$2,$3,0*
0 Add four circle primitives for the rounded corners*
1,1,$1+$1,$2,$3*
1,1,$1+$1,$4,$5*
1,1,$1+$1,$6,$7*
1,1,$1+$1,$8,$9*
0 Add four rect primitives between the rounded corners*
20,1,$1+$1,$2,$3,$4,$5,0*
20,1,$1+$1,$4,$5,$6,$7,0*
20,1,$1+$1,$6,$7,$8,$9,0*
20,1,$1+$1,$8,$9,$2,$3,0*%
G04 Aperture macros list end*
%ADD10RoundRect,0.237500X-0.250000X-0.237500X0.250000X-0.237500X0.250000X0.237500X-0.250000X0.237500X0*%
%ADD11RoundRect,0.218750X0.218750X0.256250X-0.218750X0.256250X-0.218750X-0.256250X0.218750X-0.256250X0*%
%ADD12RoundRect,0.237500X0.237500X-0.250000X0.237500X0.250000X-0.237500X0.250000X-0.237500X-0.250000X0*%
%ADD13RoundRect,0.237500X-0.237500X0.250000X-0.237500X-0.250000X0.237500X-0.250000X0.237500X0.250000X0*%
%ADD14RoundRect,0.218750X-0.218750X-0.256250X0.218750X-0.256250X0.218750X0.256250X-0.218750X0.256250X0*%
%ADD15RoundRect,0.237500X0.250000X0.237500X-0.250000X0.237500X-0.250000X-0.237500X0.250000X-0.237500X0*%
%ADD16RoundRect,0.218750X0.256250X-0.218750X0.256250X0.218750X-0.256250X0.218750X-0.256250X-0.218750X0*%
%ADD17RoundRect,0.150000X0.150000X-0.850000X0.150000X0.850000X-0.150000X0.850000X-0.150000X-0.850000X0*%
%ADD18RoundRect,0.218750X-0.256250X0.218750X-0.256250X-0.218750X0.256250X-0.218750X0.256250X0.218750X0*%
%ADD19C,0.800000*%
%ADD20C,6.400000*%
%ADD21RoundRect,0.225000X0.250000X-0.225000X0.250000X0.225000X-0.250000X0.225000X-0.250000X-0.225000X0*%
%ADD22RoundRect,0.150000X0.150000X-0.587500X0.150000X0.587500X-0.150000X0.587500X-0.150000X-0.587500X0*%
%ADD23RoundRect,0.150000X-0.150000X0.587500X-0.150000X-0.587500X0.150000X-0.587500X0.150000X0.587500X0*%
%ADD24RoundRect,0.075000X0.075000X-0.662500X0.075000X0.662500X-0.075000X0.662500X-0.075000X-0.662500X0*%
%ADD25R,1.700000X1.700000*%
%ADD26O,1.700000X1.700000*%
G04 APERTURE END LIST*
D10*
X176587500Y-113500000D03*
X178412500Y-113500000D03*
D11*
X154787500Y-119500000D03*
X153212500Y-119500000D03*
D12*
X135925000Y-72912500D03*
X135925000Y-71087500D03*
D13*
X176500000Y-121587500D03*
X176500000Y-123412500D03*
D14*
X161212500Y-38500000D03*
X162787500Y-38500000D03*
D12*
X157500000Y-115912500D03*
X157500000Y-114087500D03*
D15*
X116912500Y-56000000D03*
X115087500Y-56000000D03*
D14*
X147712500Y-43000000D03*
X149287500Y-43000000D03*
D11*
X132212500Y-81000000D03*
X130637500Y-81000000D03*
D12*
X159000000Y-64912500D03*
X159000000Y-63087500D03*
X134500000Y-115912500D03*
X134500000Y-114087500D03*
D11*
X154712500Y-81000000D03*
X153137500Y-81000000D03*
D16*
X129500000Y-96575000D03*
X129500000Y-95000000D03*
D11*
X136712500Y-81000000D03*
X135137500Y-81000000D03*
X141000000Y-81000000D03*
X139425000Y-81000000D03*
X136787500Y-119500000D03*
X135212500Y-119500000D03*
D16*
X129500000Y-57787500D03*
X129500000Y-56212500D03*
D13*
X151500000Y-46587500D03*
X151500000Y-48412500D03*
X117000000Y-78587500D03*
X117000000Y-80412500D03*
D14*
X144137500Y-85500000D03*
X145712500Y-85500000D03*
D12*
X135000000Y-107412500D03*
X135000000Y-105587500D03*
D17*
X138805000Y-99931691D03*
X140075000Y-99931691D03*
X141345000Y-99931691D03*
X142615000Y-99931691D03*
X143885000Y-99931691D03*
X145155000Y-99931691D03*
X146425000Y-99931691D03*
X147695000Y-99931691D03*
X147695000Y-94931691D03*
X146425000Y-94931691D03*
X145155000Y-94931691D03*
X143885000Y-94931691D03*
X142615000Y-94931691D03*
X141345000Y-94931691D03*
X140075000Y-94931691D03*
X138805000Y-94931691D03*
D12*
X117000000Y-40912500D03*
X117000000Y-39087500D03*
D14*
X156712500Y-38500000D03*
X158287500Y-38500000D03*
D18*
X120500000Y-69712500D03*
X120500000Y-71287500D03*
D13*
X144500000Y-46587500D03*
X144500000Y-48412500D03*
D12*
X153000000Y-115912500D03*
X153000000Y-114087500D03*
X140500000Y-115912500D03*
X140500000Y-114087500D03*
D18*
X164000000Y-108212500D03*
X164000000Y-109787500D03*
X125000000Y-51712500D03*
X125000000Y-53287500D03*
D16*
X168500000Y-67287500D03*
X168500000Y-65712500D03*
D14*
X152425000Y-43000000D03*
X154000000Y-43000000D03*
D13*
X176500000Y-78087500D03*
X176500000Y-79912500D03*
D18*
X125000000Y-117500000D03*
X125000000Y-119075000D03*
D13*
X156500000Y-54587500D03*
X156500000Y-56412500D03*
D18*
X164000000Y-112500000D03*
X164000000Y-114075000D03*
D15*
X116912500Y-104787500D03*
X115087500Y-104787500D03*
D12*
X146195000Y-92344191D03*
X146195000Y-90519191D03*
D19*
X114600000Y-30000000D03*
X115302944Y-28302944D03*
X115302944Y-31697056D03*
X117000000Y-27600000D03*
D20*
X117000000Y-30000000D03*
D19*
X117000000Y-32400000D03*
X118697056Y-28302944D03*
X118697056Y-31697056D03*
X119400000Y-30000000D03*
D15*
X116912500Y-115287500D03*
X115087500Y-115287500D03*
D18*
X125000000Y-60712500D03*
X125000000Y-62287500D03*
D14*
X130212500Y-38500000D03*
X131787500Y-38500000D03*
D21*
X151195000Y-92206691D03*
X151195000Y-90656691D03*
D18*
X125000000Y-108712500D03*
X125000000Y-110287500D03*
D11*
X132287500Y-124000000D03*
X130712500Y-124000000D03*
D15*
X116912500Y-99287500D03*
X115087500Y-99287500D03*
X116912500Y-90787500D03*
X115087500Y-90787500D03*
D13*
X178500000Y-121587500D03*
X178500000Y-123412500D03*
D11*
X159075000Y-119500000D03*
X157500000Y-119500000D03*
D15*
X116912500Y-70500000D03*
X115087500Y-70500000D03*
D12*
X176500000Y-83912500D03*
X176500000Y-82087500D03*
D10*
X176587500Y-57500000D03*
X178412500Y-57500000D03*
D12*
X157000000Y-64912500D03*
X157000000Y-63087500D03*
D11*
X145712500Y-81000000D03*
X144137500Y-81000000D03*
D14*
X143137500Y-43000000D03*
X144712500Y-43000000D03*
D10*
X176587500Y-115000000D03*
X178412500Y-115000000D03*
D22*
X133550000Y-52437500D03*
X135450000Y-52437500D03*
X134500000Y-50562500D03*
D12*
X178500000Y-83912500D03*
X178500000Y-82087500D03*
D16*
X168500000Y-114075000D03*
X168500000Y-112500000D03*
D11*
X149287500Y-34000000D03*
X147712500Y-34000000D03*
D12*
X157500000Y-107412500D03*
X157500000Y-105587500D03*
D22*
X156550000Y-52437500D03*
X158450000Y-52437500D03*
X157500000Y-50562500D03*
D12*
X152925000Y-72912500D03*
X152925000Y-71087500D03*
D11*
X136712500Y-76500000D03*
X135137500Y-76500000D03*
D12*
X145000000Y-115912500D03*
X145000000Y-114087500D03*
D18*
X164000000Y-61212500D03*
X164000000Y-62787500D03*
D11*
X154787500Y-124000000D03*
X153212500Y-124000000D03*
D16*
X168500000Y-91787500D03*
X168500000Y-90212500D03*
X129500000Y-53287500D03*
X129500000Y-51712500D03*
D23*
X116950000Y-86562500D03*
X115050000Y-86562500D03*
X116000000Y-88437500D03*
D11*
X141075000Y-119500000D03*
X139500000Y-119500000D03*
D10*
X176587500Y-48500000D03*
X178412500Y-48500000D03*
D12*
X148925000Y-72912500D03*
X148925000Y-71087500D03*
D15*
X116912500Y-109287500D03*
X115087500Y-109287500D03*
D10*
X176587500Y-106500000D03*
X178412500Y-106500000D03*
D16*
X173000000Y-49287500D03*
X173000000Y-47712500D03*
X168500000Y-53575000D03*
X168500000Y-52000000D03*
D14*
X148637500Y-85500000D03*
X150212500Y-85500000D03*
D16*
X173000000Y-58287500D03*
X173000000Y-56712500D03*
X129500000Y-105575000D03*
X129500000Y-104000000D03*
D11*
X150287500Y-81000000D03*
X148712500Y-81000000D03*
D13*
X136000000Y-46587500D03*
X136000000Y-48412500D03*
D16*
X173000000Y-53575000D03*
X173000000Y-52000000D03*
D18*
X164000000Y-94500000D03*
X164000000Y-96075000D03*
D15*
X116912500Y-64500000D03*
X115087500Y-64500000D03*
D18*
X125000000Y-69712500D03*
X125000000Y-71287500D03*
D13*
X153000000Y-46587500D03*
X153000000Y-48412500D03*
D14*
X143137500Y-38500000D03*
X144712500Y-38500000D03*
D12*
X142695000Y-92344191D03*
X142695000Y-90519191D03*
D18*
X120500000Y-51712500D03*
X120500000Y-53287500D03*
D14*
X139500000Y-128500000D03*
X141075000Y-128500000D03*
D22*
X176550000Y-75937500D03*
X178450000Y-75937500D03*
X177500000Y-74062500D03*
D14*
X147712500Y-38500000D03*
X149287500Y-38500000D03*
D13*
X143000000Y-46587500D03*
X143000000Y-48412500D03*
D16*
X173000000Y-100787500D03*
X173000000Y-99212500D03*
X168500000Y-105362500D03*
X168500000Y-103787500D03*
X173000000Y-96075000D03*
X173000000Y-94500000D03*
X173000000Y-114075000D03*
X173000000Y-112500000D03*
D18*
X164000000Y-52000000D03*
X164000000Y-53575000D03*
D11*
X144787500Y-34000000D03*
X143212500Y-34000000D03*
D12*
X159000000Y-115912500D03*
X159000000Y-114087500D03*
D18*
X120500000Y-60712500D03*
X120500000Y-62287500D03*
D11*
X136000000Y-34000000D03*
X134425000Y-34000000D03*
D16*
X173000000Y-91787500D03*
X173000000Y-90212500D03*
D15*
X116912500Y-72000000D03*
X115087500Y-72000000D03*
D18*
X120500000Y-99425000D03*
X120500000Y-101000000D03*
X120500000Y-56137500D03*
X120500000Y-57712500D03*
X125000000Y-86500000D03*
X125000000Y-88075000D03*
D16*
X168500000Y-71575000D03*
X168500000Y-70000000D03*
D22*
X115050000Y-119437500D03*
X116950000Y-119437500D03*
X116000000Y-117562500D03*
D12*
X142000000Y-115912500D03*
X142000000Y-114087500D03*
D16*
X168500000Y-62862500D03*
X168500000Y-61287500D03*
D23*
X159450000Y-109562500D03*
X157550000Y-109562500D03*
X158500000Y-111437500D03*
D13*
X140500000Y-46587500D03*
X140500000Y-48412500D03*
D14*
X153212500Y-128500000D03*
X154787500Y-128500000D03*
D18*
X164000000Y-56712500D03*
X164000000Y-58287500D03*
D10*
X176587500Y-47000000D03*
X178412500Y-47000000D03*
D11*
X159000000Y-76500000D03*
X157425000Y-76500000D03*
D18*
X125000000Y-113000000D03*
X125000000Y-114575000D03*
D22*
X176550000Y-119437500D03*
X178450000Y-119437500D03*
X177500000Y-117562500D03*
D18*
X164000000Y-103712500D03*
X164000000Y-105287500D03*
D11*
X154712500Y-76500000D03*
X153137500Y-76500000D03*
D15*
X116912500Y-61500000D03*
X115087500Y-61500000D03*
D16*
X129500000Y-71287500D03*
X129500000Y-69712500D03*
X129500000Y-114575000D03*
X129500000Y-113000000D03*
D11*
X163287500Y-124000000D03*
X161712500Y-124000000D03*
D19*
X114600000Y-139000000D03*
X115302944Y-137302944D03*
X115302944Y-140697056D03*
X117000000Y-136600000D03*
D20*
X117000000Y-139000000D03*
D19*
X117000000Y-141400000D03*
X118697056Y-137302944D03*
X118697056Y-140697056D03*
X119400000Y-139000000D03*
D16*
X168500000Y-87287500D03*
X168500000Y-85712500D03*
D12*
X134425000Y-72912500D03*
X134425000Y-71087500D03*
D11*
X141075000Y-124000000D03*
X139500000Y-124000000D03*
X141000000Y-76500000D03*
X139425000Y-76500000D03*
D12*
X136000000Y-115912500D03*
X136000000Y-114087500D03*
D14*
X157500000Y-128500000D03*
X159075000Y-128500000D03*
D16*
X168500000Y-96075000D03*
X168500000Y-94500000D03*
D18*
X120500000Y-47425000D03*
X120500000Y-49000000D03*
D10*
X176587500Y-71500000D03*
X178412500Y-71500000D03*
D23*
X158950000Y-67062500D03*
X157050000Y-67062500D03*
X158000000Y-68937500D03*
D10*
X176587500Y-101000000D03*
X178412500Y-101000000D03*
D12*
X115000000Y-84325000D03*
X115000000Y-82500000D03*
X137000000Y-107412500D03*
X137000000Y-105587500D03*
D10*
X176587500Y-105000000D03*
X178412500Y-105000000D03*
D11*
X159075000Y-124000000D03*
X157500000Y-124000000D03*
D18*
X125000000Y-95000000D03*
X125000000Y-96575000D03*
D12*
X159500000Y-107412500D03*
X159500000Y-105587500D03*
D15*
X116912500Y-66000000D03*
X115087500Y-66000000D03*
D14*
X139425000Y-85500000D03*
X141000000Y-85500000D03*
D16*
X168500000Y-44787500D03*
X168500000Y-43212500D03*
D24*
X151000000Y-100294191D03*
X151500000Y-100294191D03*
X152000000Y-100294191D03*
X152500000Y-100294191D03*
X153000000Y-100294191D03*
X153500000Y-100294191D03*
X154000000Y-100294191D03*
X154500000Y-100294191D03*
X155000000Y-100294191D03*
X155500000Y-100294191D03*
X155500000Y-94569191D03*
X155000000Y-94569191D03*
X154500000Y-94569191D03*
X154000000Y-94569191D03*
X153500000Y-94569191D03*
X153000000Y-94569191D03*
X152500000Y-94569191D03*
X152000000Y-94569191D03*
X151500000Y-94569191D03*
X151000000Y-94569191D03*
D13*
X178500000Y-78087500D03*
X178500000Y-79912500D03*
D16*
X129500000Y-49000000D03*
X129500000Y-47425000D03*
D12*
X117000000Y-84325000D03*
X117000000Y-82500000D03*
D10*
X176587500Y-96500000D03*
X178412500Y-96500000D03*
D12*
X157425000Y-72912500D03*
X157425000Y-71087500D03*
D10*
X176587500Y-61500000D03*
X178412500Y-61500000D03*
D18*
X125000000Y-99425000D03*
X125000000Y-101000000D03*
D10*
X176587500Y-63000000D03*
X178412500Y-63000000D03*
D11*
X145787500Y-124000000D03*
X144212500Y-124000000D03*
D18*
X125000000Y-90712500D03*
X125000000Y-92287500D03*
D13*
X158500000Y-54587500D03*
X158500000Y-56412500D03*
D11*
X150362500Y-124000000D03*
X148787500Y-124000000D03*
D23*
X136950000Y-109562500D03*
X135050000Y-109562500D03*
X136000000Y-111437500D03*
D16*
X168500000Y-100787500D03*
X168500000Y-99212500D03*
D11*
X140287500Y-34000000D03*
X138712500Y-34000000D03*
D19*
X174600000Y-30000000D03*
X175302944Y-28302944D03*
X175302944Y-31697056D03*
X177000000Y-27600000D03*
D20*
X177000000Y-30000000D03*
D19*
X177000000Y-32400000D03*
X178697056Y-28302944D03*
X178697056Y-31697056D03*
X179400000Y-30000000D03*
D18*
X120500000Y-104000000D03*
X120500000Y-105575000D03*
D15*
X116912500Y-107787500D03*
X115087500Y-107787500D03*
X116912500Y-96787500D03*
X115087500Y-96787500D03*
D18*
X120500000Y-95000000D03*
X120500000Y-96575000D03*
D16*
X173000000Y-62862500D03*
X173000000Y-61287500D03*
D15*
X116912500Y-49000000D03*
X115087500Y-49000000D03*
X116912500Y-53500000D03*
X115087500Y-53500000D03*
D11*
X150287500Y-76500000D03*
X148712500Y-76500000D03*
D12*
X140425000Y-72912500D03*
X140425000Y-71087500D03*
D13*
X148500000Y-46587500D03*
X148500000Y-48412500D03*
D18*
X125000000Y-74212500D03*
X125000000Y-75787500D03*
D16*
X129500000Y-62287500D03*
X129500000Y-60712500D03*
D12*
X115000000Y-40912500D03*
X115000000Y-39087500D03*
D18*
X120500000Y-90712500D03*
X120500000Y-92287500D03*
X164000000Y-47712500D03*
X164000000Y-49287500D03*
X125000000Y-65425000D03*
X125000000Y-67000000D03*
D21*
X138695000Y-92481691D03*
X138695000Y-90931691D03*
D23*
X116950000Y-43062500D03*
X115050000Y-43062500D03*
X116000000Y-44937500D03*
D10*
X176587500Y-92000000D03*
X178412500Y-92000000D03*
D23*
X178450000Y-42562500D03*
X176550000Y-42562500D03*
X177500000Y-44437500D03*
D12*
X150500000Y-115912500D03*
X150500000Y-114087500D03*
D16*
X173000000Y-109787500D03*
X173000000Y-108212500D03*
X173000000Y-105362500D03*
X173000000Y-103787500D03*
D11*
X158287500Y-34000000D03*
X156712500Y-34000000D03*
D10*
X176587500Y-98000000D03*
X178412500Y-98000000D03*
D15*
X116912500Y-113787500D03*
X115087500Y-113787500D03*
D16*
X168500000Y-49287500D03*
X168500000Y-47712500D03*
D18*
X120500000Y-108712500D03*
X120500000Y-110287500D03*
D14*
X138712500Y-38500000D03*
X140287500Y-38500000D03*
D11*
X154000000Y-34000000D03*
X152425000Y-34000000D03*
D23*
X178450000Y-86062500D03*
X176550000Y-86062500D03*
X177500000Y-87937500D03*
D14*
X148712500Y-128500000D03*
X150287500Y-128500000D03*
D16*
X168500000Y-109787500D03*
X168500000Y-108212500D03*
D14*
X135137500Y-85500000D03*
X136712500Y-85500000D03*
X144212500Y-128500000D03*
X145787500Y-128500000D03*
D15*
X116912500Y-100787500D03*
X115087500Y-100787500D03*
D11*
X145787500Y-119500000D03*
X144212500Y-119500000D03*
X136787500Y-124000000D03*
X135212500Y-124000000D03*
D10*
X176587500Y-54500000D03*
X178412500Y-54500000D03*
X176587500Y-65500000D03*
X178412500Y-65500000D03*
D12*
X178500000Y-40412500D03*
X178500000Y-38587500D03*
D14*
X134425000Y-38500000D03*
X136000000Y-38500000D03*
D16*
X129500000Y-110287500D03*
X129500000Y-108712500D03*
D15*
X116912500Y-47500000D03*
X115087500Y-47500000D03*
D18*
X125000000Y-104000000D03*
X125000000Y-105575000D03*
X120500000Y-113000000D03*
X120500000Y-114575000D03*
D10*
X176587500Y-109000000D03*
X178412500Y-109000000D03*
D14*
X135212500Y-128500000D03*
X136787500Y-128500000D03*
X157425000Y-85500000D03*
X159000000Y-85500000D03*
D16*
X168500000Y-58287500D03*
X168500000Y-56712500D03*
D11*
X150362500Y-119500000D03*
X148787500Y-119500000D03*
D18*
X164000000Y-99212500D03*
X164000000Y-100787500D03*
D10*
X176587500Y-70000000D03*
X178412500Y-70000000D03*
D16*
X168500000Y-118287500D03*
X168500000Y-116712500D03*
D14*
X156712500Y-43000000D03*
X158287500Y-43000000D03*
D18*
X125000000Y-56137500D03*
X125000000Y-57712500D03*
D16*
X129500000Y-101075000D03*
X129500000Y-99500000D03*
D13*
X117000000Y-121675000D03*
X117000000Y-123500000D03*
D16*
X168500000Y-75787500D03*
X168500000Y-74212500D03*
D10*
X176587500Y-90500000D03*
X178412500Y-90500000D03*
D12*
X134000000Y-64912500D03*
X134000000Y-63087500D03*
D15*
X116912500Y-57500000D03*
X115087500Y-57500000D03*
D14*
X134425000Y-43000000D03*
X136000000Y-43000000D03*
D16*
X129500000Y-67000000D03*
X129500000Y-65425000D03*
D13*
X157500000Y-46587500D03*
X157500000Y-48412500D03*
D10*
X176587500Y-53000000D03*
X178412500Y-53000000D03*
D11*
X163212500Y-81000000D03*
X161637500Y-81000000D03*
D13*
X135500000Y-54587500D03*
X135500000Y-56412500D03*
D18*
X125000000Y-43212500D03*
X125000000Y-44787500D03*
X164000000Y-90212500D03*
X164000000Y-91787500D03*
D12*
X136000000Y-64912500D03*
X136000000Y-63087500D03*
X149000000Y-115912500D03*
X149000000Y-114087500D03*
D19*
X174600000Y-139000000D03*
X175302944Y-137302944D03*
X175302944Y-140697056D03*
X177000000Y-136600000D03*
D20*
X177000000Y-139000000D03*
D19*
X177000000Y-141400000D03*
X178697056Y-137302944D03*
X178697056Y-140697056D03*
X179400000Y-139000000D03*
D11*
X159000000Y-81000000D03*
X157425000Y-81000000D03*
D14*
X153137500Y-85500000D03*
X154712500Y-85500000D03*
D12*
X144925000Y-72912500D03*
X144925000Y-71087500D03*
D16*
X173000000Y-71575000D03*
X173000000Y-70000000D03*
D22*
X115050000Y-76437500D03*
X116950000Y-76437500D03*
X116000000Y-74562500D03*
D12*
X141925000Y-72912500D03*
X141925000Y-71087500D03*
X158925000Y-72912500D03*
X158925000Y-71087500D03*
D14*
X138712500Y-43000000D03*
X140287500Y-43000000D03*
X152425000Y-38500000D03*
X154000000Y-38500000D03*
D13*
X134500000Y-46587500D03*
X134500000Y-48412500D03*
X133500000Y-54587500D03*
X133500000Y-56412500D03*
D18*
X164000000Y-65712500D03*
X164000000Y-67287500D03*
D12*
X150425000Y-72912500D03*
X150425000Y-71087500D03*
X176500000Y-40412500D03*
X176500000Y-38587500D03*
D13*
X115000000Y-78587500D03*
X115000000Y-80412500D03*
D18*
X125000000Y-47425000D03*
X125000000Y-49000000D03*
D13*
X159000000Y-46587500D03*
X159000000Y-48412500D03*
D11*
X145712500Y-76500000D03*
X144137500Y-76500000D03*
D23*
X135950000Y-67062500D03*
X134050000Y-67062500D03*
X135000000Y-68937500D03*
D15*
X157107500Y-102431691D03*
X155282500Y-102431691D03*
D16*
X173000000Y-67287500D03*
X173000000Y-65712500D03*
D13*
X115000000Y-121675000D03*
X115000000Y-123500000D03*
D18*
X164000000Y-70000000D03*
X164000000Y-71575000D03*
D16*
X129500000Y-92287500D03*
X129500000Y-90712500D03*
D15*
X116912500Y-92287500D03*
X115087500Y-92287500D03*
D18*
X120500000Y-65425000D03*
X120500000Y-67000000D03*
D25*
X135230000Y-133180000D03*
D26*
X137770000Y-133180000D03*
X140310000Y-133180000D03*
X142850000Y-133180000D03*
X145390000Y-133180000D03*
X147930000Y-133180000D03*
X150470000Y-133180000D03*
X153010000Y-133180000D03*
D25*
X141890000Y-137220000D03*
D26*
X141890000Y-139760000D03*
X144430000Y-137220000D03*
X144430000Y-139760000D03*
X146970000Y-137220000D03*
X146970000Y-139760000D03*
X149510000Y-137220000D03*
X149510000Y-139760000D03*
M02*
