%!PS-Adobe-3.0
%%Creator: PCBNEW
%%CreationDate: Wed Sep 18 00:29:15 2024
%%Title: ()
%%Pages: 1
%%PageOrder: Ascend
%%BoundingBox: 0 0 596 842
%%DocumentMedia: A4 595 842 0 () ()
%%Orientation: Landscape
%%EndComments
%%BeginProlog
/line { newpath moveto lineto stroke } bind def
/cir0 { newpath 0 360 arc stroke } bind def
/cir1 { newpath 0 360 arc gsave fill grestore stroke } bind def
/cir2 { newpath 0 360 arc gsave fill grestore stroke } bind def
/arc0 { newpath arc stroke } bind def
/arc1 { newpath 4 index 4 index moveto arc closepath gsave fill
    grestore stroke } bind def
/arc2 { newpath 4 index 4 index moveto arc closepath gsave fill
    grestore stroke } bind def
/poly0 { stroke } bind def
/poly1 { closepath gsave fill grestore stroke } bind def
/poly2 { closepath gsave fill grestore stroke } bind def
/rect0 { rectstroke } bind def
/rect1 { rectfill } bind def
/rect2 { rectfill } bind def
/linemode0 { 0 setlinecap 0 setlinejoin 0 setlinewidth } bind def
/linemode1 { 1 setlinecap 1 setlinejoin } bind def
/dashedline { [200] 100 setdash } bind def
/solidline { [] 0 setdash } bind def
/phantomshow { moveto
    /KicadFont findfont 0.000001 scalefont setfont
    show } bind def
/textshow { gsave
    findfont exch scalefont setfont concat 1 scale 0 0 moveto show
    } bind def
/reencodefont {
  findfont dup length dict begin
  { 1 index /FID ne
    { def }
    { pop pop } ifelse
  } forall
  /Encoding ISOLatin1Encoding def
  currentdict
  end } bind def
/KicadFont /Helvetica reencodefont definefont pop
/KicadFont-Bold /Helvetica-Bold reencodefont definefont pop
/KicadFont-Oblique /Helvetica-Oblique reencodefont definefont pop
/KicadFont-BoldOblique /Helvetica-BoldOblique reencodefont definefont pop
%%EndProlog
%Page: (1) 1
%%BeginPageSetup
gsave
0.0072 0.0072 scale
linemode1
82680 0 translate 90 rotate
76.7257 setlinewidth
%%EndPageSetup
0 0 0 setrgbcolor
19.1814 setlinewidth
47339.8 37351.9 2301.77 -180 -90 arc0
0 0 0 setrgbcolor
69590.2 78400.1 2301.77 0 90 arc0
0 0 0 setrgbcolor
47339.8 78400.1 2301.77 90 -180 arc0
0 0 0 setrgbcolor
newpath
47339.8 80701.9 moveto
69590.2 80701.9 lineto
stroke
0 0 0 setrgbcolor
newpath
71892 78400.1 moveto
71892 37351.9 lineto
stroke
0 0 0 setrgbcolor
69590.2 37351.9 2301.77 -90 0 arc0
0 0 0 setrgbcolor
newpath
45038 78400.1 moveto
45038 37351.9 lineto
stroke
0 0 0 setrgbcolor
newpath
47339.8 35050.1 moveto
69590.2 35050.1 lineto
stroke
76.7257 setlinewidth
0 0 0 setrgbcolor
0 0 0 setrgbcolor
newpath
46028.8 33845.6 moveto
46028.8 34612.8 lineto
stroke
newpath
46028.8 34612.8 moveto
46211.5 34612.8 lineto
stroke
newpath
46211.5 34612.8 moveto
46321.1 34576.3 lineto
stroke
newpath
46321.1 34576.3 moveto
46394.2 34503.2 lineto
stroke
newpath
46394.2 34503.2 moveto
46430.7 34430.1 lineto
stroke
newpath
46430.7 34430.1 moveto
46467.3 34284 lineto
stroke
newpath
46467.3 34284 moveto
46467.3 34174.4 lineto
stroke
newpath
46467.3 34174.4 moveto
46430.7 34028.2 lineto
stroke
newpath
46430.7 34028.2 moveto
46394.2 33955.2 lineto
stroke
newpath
46394.2 33955.2 moveto
46321.1 33882.1 lineto
stroke
newpath
46321.1 33882.1 moveto
46211.5 33845.6 lineto
stroke
newpath
46211.5 33845.6 moveto
46028.8 33845.6 lineto
stroke
newpath
46796.1 33845.6 moveto
46796.1 34357.1 lineto
stroke
newpath
46796.1 34210.9 moveto
46832.6 34284 lineto
stroke
newpath
46832.6 34284 moveto
46869.1 34320.5 lineto
stroke
newpath
46869.1 34320.5 moveto
46942.2 34357.1 lineto
stroke
newpath
46942.2 34357.1 moveto
47015.3 34357.1 lineto
stroke
newpath
47271 33845.6 moveto
47271 34357.1 lineto
stroke
newpath
47271 34612.8 moveto
47234.5 34576.3 lineto
stroke
newpath
47234.5 34576.3 moveto
47271 34539.7 lineto
stroke
newpath
47271 34539.7 moveto
47307.6 34576.3 lineto
stroke
newpath
47307.6 34576.3 moveto
47271 34612.8 lineto
stroke
newpath
47271 34612.8 moveto
47271 34539.7 lineto
stroke
newpath
47746 33845.6 moveto
47672.9 33882.1 lineto
stroke
newpath
47672.9 33882.1 moveto
47636.4 33955.2 lineto
stroke
newpath
47636.4 33955.2 moveto
47636.4 34612.8 lineto
stroke
newpath
48147.9 33845.6 moveto
48074.8 33882.1 lineto
stroke
newpath
48074.8 33882.1 moveto
48038.3 33955.2 lineto
stroke
newpath
48038.3 33955.2 moveto
48038.3 34612.8 lineto
stroke
newpath
49024.8 33845.6 moveto
49024.8 34612.8 lineto
stroke
newpath
49024.8 34612.8 moveto
49280.5 34064.8 lineto
stroke
newpath
49280.5 34064.8 moveto
49536.3 34612.8 lineto
stroke
newpath
49536.3 34612.8 moveto
49536.3 33845.6 lineto
stroke
newpath
50230.5 33845.6 moveto
50230.5 34247.5 lineto
stroke
newpath
50230.5 34247.5 moveto
50193.9 34320.5 lineto
stroke
newpath
50193.9 34320.5 moveto
50120.9 34357.1 lineto
stroke
newpath
50120.9 34357.1 moveto
49974.7 34357.1 lineto
stroke
newpath
49974.7 34357.1 moveto
49901.6 34320.5 lineto
stroke
newpath
50230.5 33882.1 moveto
50157.4 33845.6 lineto
stroke
newpath
50157.4 33845.6 moveto
49974.7 33845.6 lineto
stroke
newpath
49974.7 33845.6 moveto
49901.6 33882.1 lineto
stroke
newpath
49901.6 33882.1 moveto
49865.1 33955.2 lineto
stroke
newpath
49865.1 33955.2 moveto
49865.1 34028.2 lineto
stroke
newpath
49865.1 34028.2 moveto
49901.6 34101.3 lineto
stroke
newpath
49901.6 34101.3 moveto
49974.7 34137.9 lineto
stroke
newpath
49974.7 34137.9 moveto
50157.4 34137.9 lineto
stroke
newpath
50157.4 34137.9 moveto
50230.5 34174.4 lineto
stroke
newpath
50595.8 34357.1 moveto
50595.8 33589.8 lineto
stroke
newpath
50595.8 34320.5 moveto
50668.9 34357.1 lineto
stroke
newpath
50668.9 34357.1 moveto
50815 34357.1 lineto
stroke
newpath
50815 34357.1 moveto
50888.1 34320.5 lineto
stroke
newpath
50888.1 34320.5 moveto
50924.7 34284 lineto
stroke
newpath
50924.7 34284 moveto
50961.2 34210.9 lineto
stroke
newpath
50961.2 34210.9 moveto
50961.2 33991.7 lineto
stroke
newpath
50961.2 33991.7 moveto
50924.7 33918.6 lineto
stroke
newpath
50924.7 33918.6 moveto
50888.1 33882.1 lineto
stroke
newpath
50888.1 33882.1 moveto
50815 33845.6 lineto
stroke
newpath
50815 33845.6 moveto
50668.9 33845.6 lineto
stroke
newpath
50668.9 33845.6 moveto
50595.8 33882.1 lineto
stroke
newpath
51290 33918.6 moveto
51326.5 33882.1 lineto
stroke
newpath
51326.5 33882.1 moveto
51290 33845.6 lineto
stroke
newpath
51290 33845.6 moveto
51253.5 33882.1 lineto
stroke
newpath
51253.5 33882.1 moveto
51290 33918.6 lineto
stroke
newpath
51290 33918.6 moveto
51290 33845.6 lineto
stroke
newpath
51290 34320.5 moveto
51326.5 34284 lineto
stroke
newpath
51326.5 34284 moveto
51290 34247.5 lineto
stroke
newpath
51290 34247.5 moveto
51253.5 34284 lineto
stroke
newpath
51253.5 34284 moveto
51290 34320.5 lineto
stroke
newpath
51290 34320.5 moveto
51290 34247.5 lineto
stroke
showpage
grestore
%%EOF
