%TF.GenerationSoftware,KiCad,Pcbnew,8.0.1*%
%TF.CreationDate,2024-04-26T19:45:16-07:00*%
%TF.ProjectId,solenoid_driver,736f6c65-6e6f-4696-945f-647269766572,rev?*%
%TF.SameCoordinates,Original*%
%TF.FileFunction,Drillmap*%
%TF.FilePolarity,Positive*%
%FSLAX45Y45*%
G04 Gerber Fmt 4.5, Leading zero omitted, Abs format (unit mm)*
G04 Created by KiCad (PCBNEW 8.0.1) date 2024-04-26 19:45:16*
%MOMM*%
%LPD*%
G01*
G04 APERTURE LIST*
%ADD10C,0.050000*%
%ADD11C,0.200000*%
%ADD12C,0.100000*%
%ADD13C,0.101600*%
%ADD14C,0.110000*%
%ADD15C,0.152000*%
%ADD16C,0.320000*%
G04 APERTURE END LIST*
D10*
X11353553Y-6553553D02*
X16346447Y-6553553D01*
X10853553Y-7053553D02*
G75*
G02*
X11353553Y-6553553I500000J0D01*
G01*
X16346447Y-6553553D02*
G75*
G02*
X16846447Y-7053553I3J-499997D01*
G01*
X10853553Y-11446447D02*
X10853553Y-7053553D01*
X11353553Y-11946447D02*
G75*
G02*
X10853553Y-11446447I-3J499997D01*
G01*
X16846447Y-7053553D02*
X16846447Y-11446447D01*
X16346447Y-11946447D02*
X11353553Y-11946447D01*
X16846447Y-11446447D02*
G75*
G02*
X16346447Y-11946447I-499997J-3D01*
G01*
D11*
D12*
X12235000Y-7075000D02*
X12285000Y-7125000D01*
X12285000Y-7075000D02*
X12235000Y-7125000D01*
X12235000Y-11275000D02*
X12285000Y-11325000D01*
X12285000Y-11275000D02*
X12235000Y-11325000D01*
X12305294Y-6905294D02*
X12355294Y-6955294D01*
X12355294Y-6905294D02*
X12305294Y-6955294D01*
X12305294Y-7244706D02*
X12355294Y-7294706D01*
X12355294Y-7244706D02*
X12305294Y-7294706D01*
X12305294Y-11105294D02*
X12355294Y-11155294D01*
X12355294Y-11105294D02*
X12305294Y-11155294D01*
X12305294Y-11444706D02*
X12355294Y-11494706D01*
X12355294Y-11444706D02*
X12305294Y-11494706D01*
X12475000Y-6835000D02*
X12525000Y-6885000D01*
X12525000Y-6835000D02*
X12475000Y-6885000D01*
X12475000Y-7315000D02*
X12525000Y-7365000D01*
X12525000Y-7315000D02*
X12475000Y-7365000D01*
X12475000Y-11035000D02*
X12525000Y-11085000D01*
X12525000Y-11035000D02*
X12475000Y-11085000D01*
X12475000Y-11515000D02*
X12525000Y-11565000D01*
X12525000Y-11515000D02*
X12475000Y-11565000D01*
X12644706Y-6905294D02*
X12694706Y-6955294D01*
X12694706Y-6905294D02*
X12644706Y-6955294D01*
X12644706Y-7244706D02*
X12694706Y-7294706D01*
X12694706Y-7244706D02*
X12644706Y-7294706D01*
X12644706Y-11105294D02*
X12694706Y-11155294D01*
X12694706Y-11105294D02*
X12644706Y-11155294D01*
X12644706Y-11444706D02*
X12694706Y-11494706D01*
X12694706Y-11444706D02*
X12644706Y-11494706D01*
X12715000Y-7075000D02*
X12765000Y-7125000D01*
X12765000Y-7075000D02*
X12715000Y-7125000D01*
X12715000Y-11275000D02*
X12765000Y-11325000D01*
X12765000Y-11275000D02*
X12715000Y-11325000D01*
X13735000Y-7075000D02*
X13785000Y-7125000D01*
X13785000Y-7075000D02*
X13735000Y-7125000D01*
X13805294Y-6905294D02*
X13855294Y-6955294D01*
X13855294Y-6905294D02*
X13805294Y-6955294D01*
X13805294Y-7244706D02*
X13855294Y-7294706D01*
X13855294Y-7244706D02*
X13805294Y-7294706D01*
X13975000Y-6835000D02*
X14025000Y-6885000D01*
X14025000Y-6835000D02*
X13975000Y-6885000D01*
X13975000Y-7315000D02*
X14025000Y-7365000D01*
X14025000Y-7315000D02*
X13975000Y-7365000D01*
X14144706Y-6905294D02*
X14194706Y-6955294D01*
X14194706Y-6905294D02*
X14144706Y-6955294D01*
X14144706Y-7244706D02*
X14194706Y-7294706D01*
X14194706Y-7244706D02*
X14144706Y-7294706D01*
X14215000Y-7075000D02*
X14265000Y-7125000D01*
X14265000Y-7075000D02*
X14215000Y-7125000D01*
X15935000Y-10175000D02*
X15985000Y-10225000D01*
X15985000Y-10175000D02*
X15935000Y-10225000D01*
X16005294Y-10005294D02*
X16055294Y-10055294D01*
X16055294Y-10005294D02*
X16005294Y-10055294D01*
X16005294Y-10344706D02*
X16055294Y-10394706D01*
X16055294Y-10344706D02*
X16005294Y-10394706D01*
X16175000Y-9935000D02*
X16225000Y-9985000D01*
X16225000Y-9935000D02*
X16175000Y-9985000D01*
X16175000Y-10415000D02*
X16225000Y-10465000D01*
X16225000Y-10415000D02*
X16175000Y-10465000D01*
X16344706Y-10005294D02*
X16394706Y-10055294D01*
X16394706Y-10005294D02*
X16344706Y-10055294D01*
X16344706Y-10344706D02*
X16394706Y-10394706D01*
X16394706Y-10344706D02*
X16344706Y-10394706D01*
X16415000Y-10175000D02*
X16465000Y-10225000D01*
X16465000Y-10175000D02*
X16415000Y-10225000D01*
X12252000Y-8190000D02*
G75*
G02*
X12192000Y-8190000I-30000J0D01*
G01*
X12192000Y-8190000D02*
G75*
G02*
X12252000Y-8190000I30000J0D01*
G01*
X12345000Y-7522000D02*
G75*
G02*
X12285000Y-7522000I-30000J0D01*
G01*
X12285000Y-7522000D02*
G75*
G02*
X12345000Y-7522000I30000J0D01*
G01*
X12480000Y-7900000D02*
G75*
G02*
X12420000Y-7900000I-30000J0D01*
G01*
X12420000Y-7900000D02*
G75*
G02*
X12480000Y-7900000I30000J0D01*
G01*
X13530000Y-10700000D02*
G75*
G02*
X13470000Y-10700000I-30000J0D01*
G01*
X13470000Y-10700000D02*
G75*
G02*
X13530000Y-10700000I30000J0D01*
G01*
D13*
X14825000Y-6816200D02*
X14825000Y-6917800D01*
X14774200Y-6867000D02*
X14875800Y-6867000D01*
X14825000Y-7070200D02*
X14825000Y-7171800D01*
X14774200Y-7121000D02*
X14875800Y-7121000D01*
X14825000Y-7324200D02*
X14825000Y-7425800D01*
X14774200Y-7375000D02*
X14875800Y-7375000D01*
X15075000Y-8099200D02*
X15075000Y-8200800D01*
X15024200Y-8150000D02*
X15125800Y-8150000D01*
X15329000Y-8099200D02*
X15329000Y-8200800D01*
X15278200Y-8150000D02*
X15379800Y-8150000D01*
X15583000Y-8099200D02*
X15583000Y-8200800D01*
X15532200Y-8150000D02*
X15633800Y-8150000D01*
X15837000Y-8099200D02*
X15837000Y-8200800D01*
X15786200Y-8150000D02*
X15887800Y-8150000D01*
X16091000Y-8099200D02*
X16091000Y-8200800D01*
X16040200Y-8150000D02*
X16141800Y-8150000D01*
X16345000Y-8099200D02*
X16345000Y-8200800D01*
X16294200Y-8150000D02*
X16395800Y-8150000D01*
D14*
X12538891Y-8430891D02*
X12538891Y-8353109D01*
X12461109Y-8353109D01*
X12461109Y-8430891D01*
X12538891Y-8430891D01*
X12538891Y-8684891D02*
X12538891Y-8607109D01*
X12461109Y-8607109D01*
X12461109Y-8684891D01*
X12538891Y-8684891D01*
X12538891Y-8938891D02*
X12538891Y-8861109D01*
X12461109Y-8861109D01*
X12461109Y-8938891D01*
X12538891Y-8938891D01*
X12538891Y-10092891D02*
X12538891Y-10015109D01*
X12461109Y-10015109D01*
X12461109Y-10092891D01*
X12538891Y-10092891D01*
X12538891Y-10346891D02*
X12538891Y-10269109D01*
X12461109Y-10269109D01*
X12461109Y-10346891D01*
X12538891Y-10346891D01*
X12538891Y-10600891D02*
X12538891Y-10523109D01*
X12461109Y-10523109D01*
X12461109Y-10600891D01*
X12538891Y-10600891D01*
X13238891Y-7830891D02*
X13238891Y-7753109D01*
X13161109Y-7753109D01*
X13161109Y-7830891D01*
X13238891Y-7830891D01*
X13238891Y-8846891D02*
X13238891Y-8769109D01*
X13161109Y-8769109D01*
X13161109Y-8846891D01*
X13238891Y-8846891D01*
X13238891Y-9338891D02*
X13238891Y-9261109D01*
X13161109Y-9261109D01*
X13161109Y-9338891D01*
X13238891Y-9338891D01*
X13238891Y-10354891D02*
X13238891Y-10277109D01*
X13161109Y-10277109D01*
X13161109Y-10354891D01*
X13238891Y-10354891D01*
X13638891Y-8730891D02*
X13638891Y-8653109D01*
X13561109Y-8653109D01*
X13561109Y-8730891D01*
X13638891Y-8730891D01*
X13638891Y-9746891D02*
X13638891Y-9669109D01*
X13561109Y-9669109D01*
X13561109Y-9746891D01*
X13638891Y-9746891D01*
X13638891Y-10338891D02*
X13638891Y-10261109D01*
X13561109Y-10261109D01*
X13561109Y-10338891D01*
X13638891Y-10338891D01*
X13638891Y-11354891D02*
X13638891Y-11277109D01*
X13561109Y-11277109D01*
X13561109Y-11354891D01*
X13638891Y-11354891D01*
D15*
X11500000Y-7076000D02*
X11576000Y-7000000D01*
X11500000Y-6924000D01*
X11424000Y-7000000D01*
X11500000Y-7076000D01*
X11500000Y-7584000D02*
X11576000Y-7508000D01*
X11500000Y-7432000D01*
X11424000Y-7508000D01*
X11500000Y-7584000D01*
X11500000Y-8176000D02*
X11576000Y-8100000D01*
X11500000Y-8024000D01*
X11424000Y-8100000D01*
X11500000Y-8176000D01*
X11500000Y-8684000D02*
X11576000Y-8608000D01*
X11500000Y-8532000D01*
X11424000Y-8608000D01*
X11500000Y-8684000D01*
X11500000Y-9868000D02*
X11576000Y-9792000D01*
X11500000Y-9716000D01*
X11424000Y-9792000D01*
X11500000Y-9868000D01*
X11500000Y-10376000D02*
X11576000Y-10300000D01*
X11500000Y-10224000D01*
X11424000Y-10300000D01*
X11500000Y-10376000D01*
X11500000Y-10968000D02*
X11576000Y-10892000D01*
X11500000Y-10816000D01*
X11424000Y-10892000D01*
X11500000Y-10968000D01*
X11500000Y-11476000D02*
X11576000Y-11400000D01*
X11500000Y-11324000D01*
X11424000Y-11400000D01*
X11500000Y-11476000D01*
X14492000Y-11326000D02*
X14568000Y-11250000D01*
X14492000Y-11174000D01*
X14416000Y-11250000D01*
X14492000Y-11326000D01*
X15000000Y-11326000D02*
X15076000Y-11250000D01*
X15000000Y-11174000D01*
X14924000Y-11250000D01*
X15000000Y-11326000D01*
X15792000Y-11326000D02*
X15868000Y-11250000D01*
X15792000Y-11174000D01*
X15716000Y-11250000D01*
X15792000Y-11326000D01*
X16300000Y-11326000D02*
X16376000Y-11250000D01*
X16300000Y-11174000D01*
X16224000Y-11250000D01*
X16300000Y-11326000D01*
D16*
X12340000Y-6940000D02*
X12660000Y-7260000D01*
X12660000Y-6940000D02*
X12340000Y-7260000D01*
X12660000Y-7100000D02*
G75*
G02*
X12340000Y-7100000I-160000J0D01*
G01*
X12340000Y-7100000D02*
G75*
G02*
X12660000Y-7100000I160000J0D01*
G01*
X12340000Y-11140000D02*
X12660000Y-11460000D01*
X12660000Y-11140000D02*
X12340000Y-11460000D01*
X12660000Y-11300000D02*
G75*
G02*
X12340000Y-11300000I-160000J0D01*
G01*
X12340000Y-11300000D02*
G75*
G02*
X12660000Y-11300000I160000J0D01*
G01*
X13840000Y-6940000D02*
X14160000Y-7260000D01*
X14160000Y-6940000D02*
X13840000Y-7260000D01*
X14160000Y-7100000D02*
G75*
G02*
X13840000Y-7100000I-160000J0D01*
G01*
X13840000Y-7100000D02*
G75*
G02*
X14160000Y-7100000I160000J0D01*
G01*
X16040000Y-10040000D02*
X16360000Y-10360000D01*
X16360000Y-10040000D02*
X16040000Y-10360000D01*
X16360000Y-10200000D02*
G75*
G02*
X16040000Y-10200000I-160000J0D01*
G01*
X16040000Y-10200000D02*
G75*
G02*
X16360000Y-10200000I160000J0D01*
G01*
D11*
X11111830Y-12260430D02*
X11111830Y-12060430D01*
X11111830Y-12060430D02*
X11159449Y-12060430D01*
X11159449Y-12060430D02*
X11188021Y-12069954D01*
X11188021Y-12069954D02*
X11207068Y-12089002D01*
X11207068Y-12089002D02*
X11216592Y-12108049D01*
X11216592Y-12108049D02*
X11226116Y-12146145D01*
X11226116Y-12146145D02*
X11226116Y-12174716D01*
X11226116Y-12174716D02*
X11216592Y-12212811D01*
X11216592Y-12212811D02*
X11207068Y-12231859D01*
X11207068Y-12231859D02*
X11188021Y-12250907D01*
X11188021Y-12250907D02*
X11159449Y-12260430D01*
X11159449Y-12260430D02*
X11111830Y-12260430D01*
X11311830Y-12260430D02*
X11311830Y-12127097D01*
X11311830Y-12165192D02*
X11321354Y-12146145D01*
X11321354Y-12146145D02*
X11330878Y-12136621D01*
X11330878Y-12136621D02*
X11349925Y-12127097D01*
X11349925Y-12127097D02*
X11368973Y-12127097D01*
X11435640Y-12260430D02*
X11435640Y-12127097D01*
X11435640Y-12060430D02*
X11426116Y-12069954D01*
X11426116Y-12069954D02*
X11435640Y-12079478D01*
X11435640Y-12079478D02*
X11445163Y-12069954D01*
X11445163Y-12069954D02*
X11435640Y-12060430D01*
X11435640Y-12060430D02*
X11435640Y-12079478D01*
X11559449Y-12260430D02*
X11540402Y-12250907D01*
X11540402Y-12250907D02*
X11530878Y-12231859D01*
X11530878Y-12231859D02*
X11530878Y-12060430D01*
X11664211Y-12260430D02*
X11645163Y-12250907D01*
X11645163Y-12250907D02*
X11635640Y-12231859D01*
X11635640Y-12231859D02*
X11635640Y-12060430D01*
X11892783Y-12260430D02*
X11892783Y-12060430D01*
X11892783Y-12060430D02*
X11959449Y-12203287D01*
X11959449Y-12203287D02*
X12026116Y-12060430D01*
X12026116Y-12060430D02*
X12026116Y-12260430D01*
X12207068Y-12260430D02*
X12207068Y-12155668D01*
X12207068Y-12155668D02*
X12197544Y-12136621D01*
X12197544Y-12136621D02*
X12178497Y-12127097D01*
X12178497Y-12127097D02*
X12140402Y-12127097D01*
X12140402Y-12127097D02*
X12121354Y-12136621D01*
X12207068Y-12250907D02*
X12188021Y-12260430D01*
X12188021Y-12260430D02*
X12140402Y-12260430D01*
X12140402Y-12260430D02*
X12121354Y-12250907D01*
X12121354Y-12250907D02*
X12111830Y-12231859D01*
X12111830Y-12231859D02*
X12111830Y-12212811D01*
X12111830Y-12212811D02*
X12121354Y-12193764D01*
X12121354Y-12193764D02*
X12140402Y-12184240D01*
X12140402Y-12184240D02*
X12188021Y-12184240D01*
X12188021Y-12184240D02*
X12207068Y-12174716D01*
X12302306Y-12127097D02*
X12302306Y-12327097D01*
X12302306Y-12136621D02*
X12321354Y-12127097D01*
X12321354Y-12127097D02*
X12359449Y-12127097D01*
X12359449Y-12127097D02*
X12378497Y-12136621D01*
X12378497Y-12136621D02*
X12388021Y-12146145D01*
X12388021Y-12146145D02*
X12397544Y-12165192D01*
X12397544Y-12165192D02*
X12397544Y-12222335D01*
X12397544Y-12222335D02*
X12388021Y-12241383D01*
X12388021Y-12241383D02*
X12378497Y-12250907D01*
X12378497Y-12250907D02*
X12359449Y-12260430D01*
X12359449Y-12260430D02*
X12321354Y-12260430D01*
X12321354Y-12260430D02*
X12302306Y-12250907D01*
X12483259Y-12241383D02*
X12492783Y-12250907D01*
X12492783Y-12250907D02*
X12483259Y-12260430D01*
X12483259Y-12260430D02*
X12473735Y-12250907D01*
X12473735Y-12250907D02*
X12483259Y-12241383D01*
X12483259Y-12241383D02*
X12483259Y-12260430D01*
X12483259Y-12136621D02*
X12492783Y-12146145D01*
X12492783Y-12146145D02*
X12483259Y-12155668D01*
X12483259Y-12155668D02*
X12473735Y-12146145D01*
X12473735Y-12146145D02*
X12483259Y-12136621D01*
X12483259Y-12136621D02*
X12483259Y-12155668D01*
D12*
X10801053Y-12563947D02*
X10851053Y-12613947D01*
X10851053Y-12563947D02*
X10801053Y-12613947D01*
D11*
X11149925Y-12480430D02*
X11168973Y-12480430D01*
X11168973Y-12480430D02*
X11188021Y-12489954D01*
X11188021Y-12489954D02*
X11197544Y-12499478D01*
X11197544Y-12499478D02*
X11207068Y-12518526D01*
X11207068Y-12518526D02*
X11216592Y-12556621D01*
X11216592Y-12556621D02*
X11216592Y-12604240D01*
X11216592Y-12604240D02*
X11207068Y-12642335D01*
X11207068Y-12642335D02*
X11197544Y-12661383D01*
X11197544Y-12661383D02*
X11188021Y-12670907D01*
X11188021Y-12670907D02*
X11168973Y-12680430D01*
X11168973Y-12680430D02*
X11149925Y-12680430D01*
X11149925Y-12680430D02*
X11130878Y-12670907D01*
X11130878Y-12670907D02*
X11121354Y-12661383D01*
X11121354Y-12661383D02*
X11111830Y-12642335D01*
X11111830Y-12642335D02*
X11102306Y-12604240D01*
X11102306Y-12604240D02*
X11102306Y-12556621D01*
X11102306Y-12556621D02*
X11111830Y-12518526D01*
X11111830Y-12518526D02*
X11121354Y-12499478D01*
X11121354Y-12499478D02*
X11130878Y-12489954D01*
X11130878Y-12489954D02*
X11149925Y-12480430D01*
X11302306Y-12661383D02*
X11311830Y-12670907D01*
X11311830Y-12670907D02*
X11302306Y-12680430D01*
X11302306Y-12680430D02*
X11292783Y-12670907D01*
X11292783Y-12670907D02*
X11302306Y-12661383D01*
X11302306Y-12661383D02*
X11302306Y-12680430D01*
X11492783Y-12480430D02*
X11397544Y-12480430D01*
X11397544Y-12480430D02*
X11388021Y-12575668D01*
X11388021Y-12575668D02*
X11397544Y-12566145D01*
X11397544Y-12566145D02*
X11416592Y-12556621D01*
X11416592Y-12556621D02*
X11464211Y-12556621D01*
X11464211Y-12556621D02*
X11483259Y-12566145D01*
X11483259Y-12566145D02*
X11492783Y-12575668D01*
X11492783Y-12575668D02*
X11502306Y-12594716D01*
X11502306Y-12594716D02*
X11502306Y-12642335D01*
X11502306Y-12642335D02*
X11492783Y-12661383D01*
X11492783Y-12661383D02*
X11483259Y-12670907D01*
X11483259Y-12670907D02*
X11464211Y-12680430D01*
X11464211Y-12680430D02*
X11416592Y-12680430D01*
X11416592Y-12680430D02*
X11397544Y-12670907D01*
X11397544Y-12670907D02*
X11388021Y-12661383D01*
X11626116Y-12480430D02*
X11645164Y-12480430D01*
X11645164Y-12480430D02*
X11664211Y-12489954D01*
X11664211Y-12489954D02*
X11673735Y-12499478D01*
X11673735Y-12499478D02*
X11683259Y-12518526D01*
X11683259Y-12518526D02*
X11692783Y-12556621D01*
X11692783Y-12556621D02*
X11692783Y-12604240D01*
X11692783Y-12604240D02*
X11683259Y-12642335D01*
X11683259Y-12642335D02*
X11673735Y-12661383D01*
X11673735Y-12661383D02*
X11664211Y-12670907D01*
X11664211Y-12670907D02*
X11645164Y-12680430D01*
X11645164Y-12680430D02*
X11626116Y-12680430D01*
X11626116Y-12680430D02*
X11607068Y-12670907D01*
X11607068Y-12670907D02*
X11597544Y-12661383D01*
X11597544Y-12661383D02*
X11588021Y-12642335D01*
X11588021Y-12642335D02*
X11578497Y-12604240D01*
X11578497Y-12604240D02*
X11578497Y-12556621D01*
X11578497Y-12556621D02*
X11588021Y-12518526D01*
X11588021Y-12518526D02*
X11597544Y-12499478D01*
X11597544Y-12499478D02*
X11607068Y-12489954D01*
X11607068Y-12489954D02*
X11626116Y-12480430D01*
X11816592Y-12480430D02*
X11835640Y-12480430D01*
X11835640Y-12480430D02*
X11854687Y-12489954D01*
X11854687Y-12489954D02*
X11864211Y-12499478D01*
X11864211Y-12499478D02*
X11873735Y-12518526D01*
X11873735Y-12518526D02*
X11883259Y-12556621D01*
X11883259Y-12556621D02*
X11883259Y-12604240D01*
X11883259Y-12604240D02*
X11873735Y-12642335D01*
X11873735Y-12642335D02*
X11864211Y-12661383D01*
X11864211Y-12661383D02*
X11854687Y-12670907D01*
X11854687Y-12670907D02*
X11835640Y-12680430D01*
X11835640Y-12680430D02*
X11816592Y-12680430D01*
X11816592Y-12680430D02*
X11797544Y-12670907D01*
X11797544Y-12670907D02*
X11788021Y-12661383D01*
X11788021Y-12661383D02*
X11778497Y-12642335D01*
X11778497Y-12642335D02*
X11768973Y-12604240D01*
X11768973Y-12604240D02*
X11768973Y-12556621D01*
X11768973Y-12556621D02*
X11778497Y-12518526D01*
X11778497Y-12518526D02*
X11788021Y-12499478D01*
X11788021Y-12499478D02*
X11797544Y-12489954D01*
X11797544Y-12489954D02*
X11816592Y-12480430D01*
X11968973Y-12680430D02*
X11968973Y-12547097D01*
X11968973Y-12566145D02*
X11978497Y-12556621D01*
X11978497Y-12556621D02*
X11997544Y-12547097D01*
X11997544Y-12547097D02*
X12026116Y-12547097D01*
X12026116Y-12547097D02*
X12045164Y-12556621D01*
X12045164Y-12556621D02*
X12054687Y-12575668D01*
X12054687Y-12575668D02*
X12054687Y-12680430D01*
X12054687Y-12575668D02*
X12064211Y-12556621D01*
X12064211Y-12556621D02*
X12083259Y-12547097D01*
X12083259Y-12547097D02*
X12111830Y-12547097D01*
X12111830Y-12547097D02*
X12130878Y-12556621D01*
X12130878Y-12556621D02*
X12140402Y-12575668D01*
X12140402Y-12575668D02*
X12140402Y-12680430D01*
X12235640Y-12680430D02*
X12235640Y-12547097D01*
X12235640Y-12566145D02*
X12245164Y-12556621D01*
X12245164Y-12556621D02*
X12264211Y-12547097D01*
X12264211Y-12547097D02*
X12292783Y-12547097D01*
X12292783Y-12547097D02*
X12311830Y-12556621D01*
X12311830Y-12556621D02*
X12321354Y-12575668D01*
X12321354Y-12575668D02*
X12321354Y-12680430D01*
X12321354Y-12575668D02*
X12330878Y-12556621D01*
X12330878Y-12556621D02*
X12349925Y-12547097D01*
X12349925Y-12547097D02*
X12378497Y-12547097D01*
X12378497Y-12547097D02*
X12397545Y-12556621D01*
X12397545Y-12556621D02*
X12407068Y-12575668D01*
X12407068Y-12575668D02*
X12407068Y-12680430D01*
X12797545Y-12470907D02*
X12626116Y-12728049D01*
X13054687Y-12480430D02*
X13073735Y-12480430D01*
X13073735Y-12480430D02*
X13092783Y-12489954D01*
X13092783Y-12489954D02*
X13102307Y-12499478D01*
X13102307Y-12499478D02*
X13111830Y-12518526D01*
X13111830Y-12518526D02*
X13121354Y-12556621D01*
X13121354Y-12556621D02*
X13121354Y-12604240D01*
X13121354Y-12604240D02*
X13111830Y-12642335D01*
X13111830Y-12642335D02*
X13102307Y-12661383D01*
X13102307Y-12661383D02*
X13092783Y-12670907D01*
X13092783Y-12670907D02*
X13073735Y-12680430D01*
X13073735Y-12680430D02*
X13054687Y-12680430D01*
X13054687Y-12680430D02*
X13035640Y-12670907D01*
X13035640Y-12670907D02*
X13026116Y-12661383D01*
X13026116Y-12661383D02*
X13016592Y-12642335D01*
X13016592Y-12642335D02*
X13007068Y-12604240D01*
X13007068Y-12604240D02*
X13007068Y-12556621D01*
X13007068Y-12556621D02*
X13016592Y-12518526D01*
X13016592Y-12518526D02*
X13026116Y-12499478D01*
X13026116Y-12499478D02*
X13035640Y-12489954D01*
X13035640Y-12489954D02*
X13054687Y-12480430D01*
X13207068Y-12661383D02*
X13216592Y-12670907D01*
X13216592Y-12670907D02*
X13207068Y-12680430D01*
X13207068Y-12680430D02*
X13197545Y-12670907D01*
X13197545Y-12670907D02*
X13207068Y-12661383D01*
X13207068Y-12661383D02*
X13207068Y-12680430D01*
X13340402Y-12480430D02*
X13359449Y-12480430D01*
X13359449Y-12480430D02*
X13378497Y-12489954D01*
X13378497Y-12489954D02*
X13388021Y-12499478D01*
X13388021Y-12499478D02*
X13397545Y-12518526D01*
X13397545Y-12518526D02*
X13407068Y-12556621D01*
X13407068Y-12556621D02*
X13407068Y-12604240D01*
X13407068Y-12604240D02*
X13397545Y-12642335D01*
X13397545Y-12642335D02*
X13388021Y-12661383D01*
X13388021Y-12661383D02*
X13378497Y-12670907D01*
X13378497Y-12670907D02*
X13359449Y-12680430D01*
X13359449Y-12680430D02*
X13340402Y-12680430D01*
X13340402Y-12680430D02*
X13321354Y-12670907D01*
X13321354Y-12670907D02*
X13311830Y-12661383D01*
X13311830Y-12661383D02*
X13302307Y-12642335D01*
X13302307Y-12642335D02*
X13292783Y-12604240D01*
X13292783Y-12604240D02*
X13292783Y-12556621D01*
X13292783Y-12556621D02*
X13302307Y-12518526D01*
X13302307Y-12518526D02*
X13311830Y-12499478D01*
X13311830Y-12499478D02*
X13321354Y-12489954D01*
X13321354Y-12489954D02*
X13340402Y-12480430D01*
X13597545Y-12680430D02*
X13483259Y-12680430D01*
X13540402Y-12680430D02*
X13540402Y-12480430D01*
X13540402Y-12480430D02*
X13521354Y-12509002D01*
X13521354Y-12509002D02*
X13502307Y-12528049D01*
X13502307Y-12528049D02*
X13483259Y-12537573D01*
X13692783Y-12680430D02*
X13730878Y-12680430D01*
X13730878Y-12680430D02*
X13749926Y-12670907D01*
X13749926Y-12670907D02*
X13759449Y-12661383D01*
X13759449Y-12661383D02*
X13778497Y-12632811D01*
X13778497Y-12632811D02*
X13788021Y-12594716D01*
X13788021Y-12594716D02*
X13788021Y-12518526D01*
X13788021Y-12518526D02*
X13778497Y-12499478D01*
X13778497Y-12499478D02*
X13768973Y-12489954D01*
X13768973Y-12489954D02*
X13749926Y-12480430D01*
X13749926Y-12480430D02*
X13711830Y-12480430D01*
X13711830Y-12480430D02*
X13692783Y-12489954D01*
X13692783Y-12489954D02*
X13683259Y-12499478D01*
X13683259Y-12499478D02*
X13673735Y-12518526D01*
X13673735Y-12518526D02*
X13673735Y-12566145D01*
X13673735Y-12566145D02*
X13683259Y-12585192D01*
X13683259Y-12585192D02*
X13692783Y-12594716D01*
X13692783Y-12594716D02*
X13711830Y-12604240D01*
X13711830Y-12604240D02*
X13749926Y-12604240D01*
X13749926Y-12604240D02*
X13768973Y-12594716D01*
X13768973Y-12594716D02*
X13778497Y-12585192D01*
X13778497Y-12585192D02*
X13788021Y-12566145D01*
X13854688Y-12480430D02*
X13988021Y-12480430D01*
X13988021Y-12480430D02*
X13902307Y-12680430D01*
X14054688Y-12480430D02*
X14054688Y-12518526D01*
X14130878Y-12480430D02*
X14130878Y-12518526D01*
X14426116Y-12756621D02*
X14416592Y-12747097D01*
X14416592Y-12747097D02*
X14397545Y-12718526D01*
X14397545Y-12718526D02*
X14388021Y-12699478D01*
X14388021Y-12699478D02*
X14378497Y-12670907D01*
X14378497Y-12670907D02*
X14368973Y-12623287D01*
X14368973Y-12623287D02*
X14368973Y-12585192D01*
X14368973Y-12585192D02*
X14378497Y-12537573D01*
X14378497Y-12537573D02*
X14388021Y-12509002D01*
X14388021Y-12509002D02*
X14397545Y-12489954D01*
X14397545Y-12489954D02*
X14416592Y-12461383D01*
X14416592Y-12461383D02*
X14426116Y-12451859D01*
X14483259Y-12480430D02*
X14607069Y-12480430D01*
X14607069Y-12480430D02*
X14540402Y-12556621D01*
X14540402Y-12556621D02*
X14568973Y-12556621D01*
X14568973Y-12556621D02*
X14588021Y-12566145D01*
X14588021Y-12566145D02*
X14597545Y-12575668D01*
X14597545Y-12575668D02*
X14607069Y-12594716D01*
X14607069Y-12594716D02*
X14607069Y-12642335D01*
X14607069Y-12642335D02*
X14597545Y-12661383D01*
X14597545Y-12661383D02*
X14588021Y-12670907D01*
X14588021Y-12670907D02*
X14568973Y-12680430D01*
X14568973Y-12680430D02*
X14511830Y-12680430D01*
X14511830Y-12680430D02*
X14492783Y-12670907D01*
X14492783Y-12670907D02*
X14483259Y-12661383D01*
X14683259Y-12499478D02*
X14692783Y-12489954D01*
X14692783Y-12489954D02*
X14711830Y-12480430D01*
X14711830Y-12480430D02*
X14759450Y-12480430D01*
X14759450Y-12480430D02*
X14778497Y-12489954D01*
X14778497Y-12489954D02*
X14788021Y-12499478D01*
X14788021Y-12499478D02*
X14797545Y-12518526D01*
X14797545Y-12518526D02*
X14797545Y-12537573D01*
X14797545Y-12537573D02*
X14788021Y-12566145D01*
X14788021Y-12566145D02*
X14673735Y-12680430D01*
X14673735Y-12680430D02*
X14797545Y-12680430D01*
X15035640Y-12680430D02*
X15035640Y-12480430D01*
X15121354Y-12680430D02*
X15121354Y-12575668D01*
X15121354Y-12575668D02*
X15111831Y-12556621D01*
X15111831Y-12556621D02*
X15092783Y-12547097D01*
X15092783Y-12547097D02*
X15064211Y-12547097D01*
X15064211Y-12547097D02*
X15045164Y-12556621D01*
X15045164Y-12556621D02*
X15035640Y-12566145D01*
X15245164Y-12680430D02*
X15226116Y-12670907D01*
X15226116Y-12670907D02*
X15216592Y-12661383D01*
X15216592Y-12661383D02*
X15207069Y-12642335D01*
X15207069Y-12642335D02*
X15207069Y-12585192D01*
X15207069Y-12585192D02*
X15216592Y-12566145D01*
X15216592Y-12566145D02*
X15226116Y-12556621D01*
X15226116Y-12556621D02*
X15245164Y-12547097D01*
X15245164Y-12547097D02*
X15273735Y-12547097D01*
X15273735Y-12547097D02*
X15292783Y-12556621D01*
X15292783Y-12556621D02*
X15302307Y-12566145D01*
X15302307Y-12566145D02*
X15311831Y-12585192D01*
X15311831Y-12585192D02*
X15311831Y-12642335D01*
X15311831Y-12642335D02*
X15302307Y-12661383D01*
X15302307Y-12661383D02*
X15292783Y-12670907D01*
X15292783Y-12670907D02*
X15273735Y-12680430D01*
X15273735Y-12680430D02*
X15245164Y-12680430D01*
X15426116Y-12680430D02*
X15407069Y-12670907D01*
X15407069Y-12670907D02*
X15397545Y-12651859D01*
X15397545Y-12651859D02*
X15397545Y-12480430D01*
X15578497Y-12670907D02*
X15559450Y-12680430D01*
X15559450Y-12680430D02*
X15521354Y-12680430D01*
X15521354Y-12680430D02*
X15502307Y-12670907D01*
X15502307Y-12670907D02*
X15492783Y-12651859D01*
X15492783Y-12651859D02*
X15492783Y-12575668D01*
X15492783Y-12575668D02*
X15502307Y-12556621D01*
X15502307Y-12556621D02*
X15521354Y-12547097D01*
X15521354Y-12547097D02*
X15559450Y-12547097D01*
X15559450Y-12547097D02*
X15578497Y-12556621D01*
X15578497Y-12556621D02*
X15588021Y-12575668D01*
X15588021Y-12575668D02*
X15588021Y-12594716D01*
X15588021Y-12594716D02*
X15492783Y-12613764D01*
X15664212Y-12670907D02*
X15683259Y-12680430D01*
X15683259Y-12680430D02*
X15721354Y-12680430D01*
X15721354Y-12680430D02*
X15740402Y-12670907D01*
X15740402Y-12670907D02*
X15749926Y-12651859D01*
X15749926Y-12651859D02*
X15749926Y-12642335D01*
X15749926Y-12642335D02*
X15740402Y-12623287D01*
X15740402Y-12623287D02*
X15721354Y-12613764D01*
X15721354Y-12613764D02*
X15692783Y-12613764D01*
X15692783Y-12613764D02*
X15673735Y-12604240D01*
X15673735Y-12604240D02*
X15664212Y-12585192D01*
X15664212Y-12585192D02*
X15664212Y-12575668D01*
X15664212Y-12575668D02*
X15673735Y-12556621D01*
X15673735Y-12556621D02*
X15692783Y-12547097D01*
X15692783Y-12547097D02*
X15721354Y-12547097D01*
X15721354Y-12547097D02*
X15740402Y-12556621D01*
X15816593Y-12756621D02*
X15826116Y-12747097D01*
X15826116Y-12747097D02*
X15845164Y-12718526D01*
X15845164Y-12718526D02*
X15854688Y-12699478D01*
X15854688Y-12699478D02*
X15864212Y-12670907D01*
X15864212Y-12670907D02*
X15873735Y-12623287D01*
X15873735Y-12623287D02*
X15873735Y-12585192D01*
X15873735Y-12585192D02*
X15864212Y-12537573D01*
X15864212Y-12537573D02*
X15854688Y-12509002D01*
X15854688Y-12509002D02*
X15845164Y-12489954D01*
X15845164Y-12489954D02*
X15826116Y-12461383D01*
X15826116Y-12461383D02*
X15816593Y-12451859D01*
D12*
X10851053Y-12852947D02*
G75*
G02*
X10791053Y-12852947I-30000J0D01*
G01*
X10791053Y-12852947D02*
G75*
G02*
X10851053Y-12852947I30000J0D01*
G01*
D11*
X11149925Y-12744430D02*
X11168973Y-12744430D01*
X11168973Y-12744430D02*
X11188021Y-12753954D01*
X11188021Y-12753954D02*
X11197544Y-12763478D01*
X11197544Y-12763478D02*
X11207068Y-12782526D01*
X11207068Y-12782526D02*
X11216592Y-12820621D01*
X11216592Y-12820621D02*
X11216592Y-12868240D01*
X11216592Y-12868240D02*
X11207068Y-12906335D01*
X11207068Y-12906335D02*
X11197544Y-12925383D01*
X11197544Y-12925383D02*
X11188021Y-12934907D01*
X11188021Y-12934907D02*
X11168973Y-12944430D01*
X11168973Y-12944430D02*
X11149925Y-12944430D01*
X11149925Y-12944430D02*
X11130878Y-12934907D01*
X11130878Y-12934907D02*
X11121354Y-12925383D01*
X11121354Y-12925383D02*
X11111830Y-12906335D01*
X11111830Y-12906335D02*
X11102306Y-12868240D01*
X11102306Y-12868240D02*
X11102306Y-12820621D01*
X11102306Y-12820621D02*
X11111830Y-12782526D01*
X11111830Y-12782526D02*
X11121354Y-12763478D01*
X11121354Y-12763478D02*
X11130878Y-12753954D01*
X11130878Y-12753954D02*
X11149925Y-12744430D01*
X11302306Y-12925383D02*
X11311830Y-12934907D01*
X11311830Y-12934907D02*
X11302306Y-12944430D01*
X11302306Y-12944430D02*
X11292783Y-12934907D01*
X11292783Y-12934907D02*
X11302306Y-12925383D01*
X11302306Y-12925383D02*
X11302306Y-12944430D01*
X11483259Y-12744430D02*
X11445163Y-12744430D01*
X11445163Y-12744430D02*
X11426116Y-12753954D01*
X11426116Y-12753954D02*
X11416592Y-12763478D01*
X11416592Y-12763478D02*
X11397544Y-12792049D01*
X11397544Y-12792049D02*
X11388021Y-12830145D01*
X11388021Y-12830145D02*
X11388021Y-12906335D01*
X11388021Y-12906335D02*
X11397544Y-12925383D01*
X11397544Y-12925383D02*
X11407068Y-12934907D01*
X11407068Y-12934907D02*
X11426116Y-12944430D01*
X11426116Y-12944430D02*
X11464211Y-12944430D01*
X11464211Y-12944430D02*
X11483259Y-12934907D01*
X11483259Y-12934907D02*
X11492783Y-12925383D01*
X11492783Y-12925383D02*
X11502306Y-12906335D01*
X11502306Y-12906335D02*
X11502306Y-12858716D01*
X11502306Y-12858716D02*
X11492783Y-12839668D01*
X11492783Y-12839668D02*
X11483259Y-12830145D01*
X11483259Y-12830145D02*
X11464211Y-12820621D01*
X11464211Y-12820621D02*
X11426116Y-12820621D01*
X11426116Y-12820621D02*
X11407068Y-12830145D01*
X11407068Y-12830145D02*
X11397544Y-12839668D01*
X11397544Y-12839668D02*
X11388021Y-12858716D01*
X11626116Y-12744430D02*
X11645164Y-12744430D01*
X11645164Y-12744430D02*
X11664211Y-12753954D01*
X11664211Y-12753954D02*
X11673735Y-12763478D01*
X11673735Y-12763478D02*
X11683259Y-12782526D01*
X11683259Y-12782526D02*
X11692783Y-12820621D01*
X11692783Y-12820621D02*
X11692783Y-12868240D01*
X11692783Y-12868240D02*
X11683259Y-12906335D01*
X11683259Y-12906335D02*
X11673735Y-12925383D01*
X11673735Y-12925383D02*
X11664211Y-12934907D01*
X11664211Y-12934907D02*
X11645164Y-12944430D01*
X11645164Y-12944430D02*
X11626116Y-12944430D01*
X11626116Y-12944430D02*
X11607068Y-12934907D01*
X11607068Y-12934907D02*
X11597544Y-12925383D01*
X11597544Y-12925383D02*
X11588021Y-12906335D01*
X11588021Y-12906335D02*
X11578497Y-12868240D01*
X11578497Y-12868240D02*
X11578497Y-12820621D01*
X11578497Y-12820621D02*
X11588021Y-12782526D01*
X11588021Y-12782526D02*
X11597544Y-12763478D01*
X11597544Y-12763478D02*
X11607068Y-12753954D01*
X11607068Y-12753954D02*
X11626116Y-12744430D01*
X11816592Y-12744430D02*
X11835640Y-12744430D01*
X11835640Y-12744430D02*
X11854687Y-12753954D01*
X11854687Y-12753954D02*
X11864211Y-12763478D01*
X11864211Y-12763478D02*
X11873735Y-12782526D01*
X11873735Y-12782526D02*
X11883259Y-12820621D01*
X11883259Y-12820621D02*
X11883259Y-12868240D01*
X11883259Y-12868240D02*
X11873735Y-12906335D01*
X11873735Y-12906335D02*
X11864211Y-12925383D01*
X11864211Y-12925383D02*
X11854687Y-12934907D01*
X11854687Y-12934907D02*
X11835640Y-12944430D01*
X11835640Y-12944430D02*
X11816592Y-12944430D01*
X11816592Y-12944430D02*
X11797544Y-12934907D01*
X11797544Y-12934907D02*
X11788021Y-12925383D01*
X11788021Y-12925383D02*
X11778497Y-12906335D01*
X11778497Y-12906335D02*
X11768973Y-12868240D01*
X11768973Y-12868240D02*
X11768973Y-12820621D01*
X11768973Y-12820621D02*
X11778497Y-12782526D01*
X11778497Y-12782526D02*
X11788021Y-12763478D01*
X11788021Y-12763478D02*
X11797544Y-12753954D01*
X11797544Y-12753954D02*
X11816592Y-12744430D01*
X11968973Y-12944430D02*
X11968973Y-12811097D01*
X11968973Y-12830145D02*
X11978497Y-12820621D01*
X11978497Y-12820621D02*
X11997544Y-12811097D01*
X11997544Y-12811097D02*
X12026116Y-12811097D01*
X12026116Y-12811097D02*
X12045164Y-12820621D01*
X12045164Y-12820621D02*
X12054687Y-12839668D01*
X12054687Y-12839668D02*
X12054687Y-12944430D01*
X12054687Y-12839668D02*
X12064211Y-12820621D01*
X12064211Y-12820621D02*
X12083259Y-12811097D01*
X12083259Y-12811097D02*
X12111830Y-12811097D01*
X12111830Y-12811097D02*
X12130878Y-12820621D01*
X12130878Y-12820621D02*
X12140402Y-12839668D01*
X12140402Y-12839668D02*
X12140402Y-12944430D01*
X12235640Y-12944430D02*
X12235640Y-12811097D01*
X12235640Y-12830145D02*
X12245164Y-12820621D01*
X12245164Y-12820621D02*
X12264211Y-12811097D01*
X12264211Y-12811097D02*
X12292783Y-12811097D01*
X12292783Y-12811097D02*
X12311830Y-12820621D01*
X12311830Y-12820621D02*
X12321354Y-12839668D01*
X12321354Y-12839668D02*
X12321354Y-12944430D01*
X12321354Y-12839668D02*
X12330878Y-12820621D01*
X12330878Y-12820621D02*
X12349925Y-12811097D01*
X12349925Y-12811097D02*
X12378497Y-12811097D01*
X12378497Y-12811097D02*
X12397545Y-12820621D01*
X12397545Y-12820621D02*
X12407068Y-12839668D01*
X12407068Y-12839668D02*
X12407068Y-12944430D01*
X12797545Y-12734907D02*
X12626116Y-12992049D01*
X13054687Y-12744430D02*
X13073735Y-12744430D01*
X13073735Y-12744430D02*
X13092783Y-12753954D01*
X13092783Y-12753954D02*
X13102307Y-12763478D01*
X13102307Y-12763478D02*
X13111830Y-12782526D01*
X13111830Y-12782526D02*
X13121354Y-12820621D01*
X13121354Y-12820621D02*
X13121354Y-12868240D01*
X13121354Y-12868240D02*
X13111830Y-12906335D01*
X13111830Y-12906335D02*
X13102307Y-12925383D01*
X13102307Y-12925383D02*
X13092783Y-12934907D01*
X13092783Y-12934907D02*
X13073735Y-12944430D01*
X13073735Y-12944430D02*
X13054687Y-12944430D01*
X13054687Y-12944430D02*
X13035640Y-12934907D01*
X13035640Y-12934907D02*
X13026116Y-12925383D01*
X13026116Y-12925383D02*
X13016592Y-12906335D01*
X13016592Y-12906335D02*
X13007068Y-12868240D01*
X13007068Y-12868240D02*
X13007068Y-12820621D01*
X13007068Y-12820621D02*
X13016592Y-12782526D01*
X13016592Y-12782526D02*
X13026116Y-12763478D01*
X13026116Y-12763478D02*
X13035640Y-12753954D01*
X13035640Y-12753954D02*
X13054687Y-12744430D01*
X13207068Y-12925383D02*
X13216592Y-12934907D01*
X13216592Y-12934907D02*
X13207068Y-12944430D01*
X13207068Y-12944430D02*
X13197545Y-12934907D01*
X13197545Y-12934907D02*
X13207068Y-12925383D01*
X13207068Y-12925383D02*
X13207068Y-12944430D01*
X13340402Y-12744430D02*
X13359449Y-12744430D01*
X13359449Y-12744430D02*
X13378497Y-12753954D01*
X13378497Y-12753954D02*
X13388021Y-12763478D01*
X13388021Y-12763478D02*
X13397545Y-12782526D01*
X13397545Y-12782526D02*
X13407068Y-12820621D01*
X13407068Y-12820621D02*
X13407068Y-12868240D01*
X13407068Y-12868240D02*
X13397545Y-12906335D01*
X13397545Y-12906335D02*
X13388021Y-12925383D01*
X13388021Y-12925383D02*
X13378497Y-12934907D01*
X13378497Y-12934907D02*
X13359449Y-12944430D01*
X13359449Y-12944430D02*
X13340402Y-12944430D01*
X13340402Y-12944430D02*
X13321354Y-12934907D01*
X13321354Y-12934907D02*
X13311830Y-12925383D01*
X13311830Y-12925383D02*
X13302307Y-12906335D01*
X13302307Y-12906335D02*
X13292783Y-12868240D01*
X13292783Y-12868240D02*
X13292783Y-12820621D01*
X13292783Y-12820621D02*
X13302307Y-12782526D01*
X13302307Y-12782526D02*
X13311830Y-12763478D01*
X13311830Y-12763478D02*
X13321354Y-12753954D01*
X13321354Y-12753954D02*
X13340402Y-12744430D01*
X13483259Y-12763478D02*
X13492783Y-12753954D01*
X13492783Y-12753954D02*
X13511830Y-12744430D01*
X13511830Y-12744430D02*
X13559449Y-12744430D01*
X13559449Y-12744430D02*
X13578497Y-12753954D01*
X13578497Y-12753954D02*
X13588021Y-12763478D01*
X13588021Y-12763478D02*
X13597545Y-12782526D01*
X13597545Y-12782526D02*
X13597545Y-12801573D01*
X13597545Y-12801573D02*
X13588021Y-12830145D01*
X13588021Y-12830145D02*
X13473735Y-12944430D01*
X13473735Y-12944430D02*
X13597545Y-12944430D01*
X13664211Y-12744430D02*
X13788021Y-12744430D01*
X13788021Y-12744430D02*
X13721354Y-12820621D01*
X13721354Y-12820621D02*
X13749926Y-12820621D01*
X13749926Y-12820621D02*
X13768973Y-12830145D01*
X13768973Y-12830145D02*
X13778497Y-12839668D01*
X13778497Y-12839668D02*
X13788021Y-12858716D01*
X13788021Y-12858716D02*
X13788021Y-12906335D01*
X13788021Y-12906335D02*
X13778497Y-12925383D01*
X13778497Y-12925383D02*
X13768973Y-12934907D01*
X13768973Y-12934907D02*
X13749926Y-12944430D01*
X13749926Y-12944430D02*
X13692783Y-12944430D01*
X13692783Y-12944430D02*
X13673735Y-12934907D01*
X13673735Y-12934907D02*
X13664211Y-12925383D01*
X13959449Y-12744430D02*
X13921354Y-12744430D01*
X13921354Y-12744430D02*
X13902307Y-12753954D01*
X13902307Y-12753954D02*
X13892783Y-12763478D01*
X13892783Y-12763478D02*
X13873735Y-12792049D01*
X13873735Y-12792049D02*
X13864211Y-12830145D01*
X13864211Y-12830145D02*
X13864211Y-12906335D01*
X13864211Y-12906335D02*
X13873735Y-12925383D01*
X13873735Y-12925383D02*
X13883259Y-12934907D01*
X13883259Y-12934907D02*
X13902307Y-12944430D01*
X13902307Y-12944430D02*
X13940402Y-12944430D01*
X13940402Y-12944430D02*
X13959449Y-12934907D01*
X13959449Y-12934907D02*
X13968973Y-12925383D01*
X13968973Y-12925383D02*
X13978497Y-12906335D01*
X13978497Y-12906335D02*
X13978497Y-12858716D01*
X13978497Y-12858716D02*
X13968973Y-12839668D01*
X13968973Y-12839668D02*
X13959449Y-12830145D01*
X13959449Y-12830145D02*
X13940402Y-12820621D01*
X13940402Y-12820621D02*
X13902307Y-12820621D01*
X13902307Y-12820621D02*
X13883259Y-12830145D01*
X13883259Y-12830145D02*
X13873735Y-12839668D01*
X13873735Y-12839668D02*
X13864211Y-12858716D01*
X14054688Y-12744430D02*
X14054688Y-12782526D01*
X14130878Y-12744430D02*
X14130878Y-12782526D01*
X14426116Y-13020621D02*
X14416592Y-13011097D01*
X14416592Y-13011097D02*
X14397545Y-12982526D01*
X14397545Y-12982526D02*
X14388021Y-12963478D01*
X14388021Y-12963478D02*
X14378497Y-12934907D01*
X14378497Y-12934907D02*
X14368973Y-12887287D01*
X14368973Y-12887287D02*
X14368973Y-12849192D01*
X14368973Y-12849192D02*
X14378497Y-12801573D01*
X14378497Y-12801573D02*
X14388021Y-12773002D01*
X14388021Y-12773002D02*
X14397545Y-12753954D01*
X14397545Y-12753954D02*
X14416592Y-12725383D01*
X14416592Y-12725383D02*
X14426116Y-12715859D01*
X14588021Y-12811097D02*
X14588021Y-12944430D01*
X14540402Y-12734907D02*
X14492783Y-12877764D01*
X14492783Y-12877764D02*
X14616592Y-12877764D01*
X14845164Y-12944430D02*
X14845164Y-12744430D01*
X14930878Y-12944430D02*
X14930878Y-12839668D01*
X14930878Y-12839668D02*
X14921354Y-12820621D01*
X14921354Y-12820621D02*
X14902307Y-12811097D01*
X14902307Y-12811097D02*
X14873735Y-12811097D01*
X14873735Y-12811097D02*
X14854688Y-12820621D01*
X14854688Y-12820621D02*
X14845164Y-12830145D01*
X15054688Y-12944430D02*
X15035640Y-12934907D01*
X15035640Y-12934907D02*
X15026116Y-12925383D01*
X15026116Y-12925383D02*
X15016592Y-12906335D01*
X15016592Y-12906335D02*
X15016592Y-12849192D01*
X15016592Y-12849192D02*
X15026116Y-12830145D01*
X15026116Y-12830145D02*
X15035640Y-12820621D01*
X15035640Y-12820621D02*
X15054688Y-12811097D01*
X15054688Y-12811097D02*
X15083259Y-12811097D01*
X15083259Y-12811097D02*
X15102307Y-12820621D01*
X15102307Y-12820621D02*
X15111831Y-12830145D01*
X15111831Y-12830145D02*
X15121354Y-12849192D01*
X15121354Y-12849192D02*
X15121354Y-12906335D01*
X15121354Y-12906335D02*
X15111831Y-12925383D01*
X15111831Y-12925383D02*
X15102307Y-12934907D01*
X15102307Y-12934907D02*
X15083259Y-12944430D01*
X15083259Y-12944430D02*
X15054688Y-12944430D01*
X15235640Y-12944430D02*
X15216592Y-12934907D01*
X15216592Y-12934907D02*
X15207069Y-12915859D01*
X15207069Y-12915859D02*
X15207069Y-12744430D01*
X15388021Y-12934907D02*
X15368973Y-12944430D01*
X15368973Y-12944430D02*
X15330878Y-12944430D01*
X15330878Y-12944430D02*
X15311831Y-12934907D01*
X15311831Y-12934907D02*
X15302307Y-12915859D01*
X15302307Y-12915859D02*
X15302307Y-12839668D01*
X15302307Y-12839668D02*
X15311831Y-12820621D01*
X15311831Y-12820621D02*
X15330878Y-12811097D01*
X15330878Y-12811097D02*
X15368973Y-12811097D01*
X15368973Y-12811097D02*
X15388021Y-12820621D01*
X15388021Y-12820621D02*
X15397545Y-12839668D01*
X15397545Y-12839668D02*
X15397545Y-12858716D01*
X15397545Y-12858716D02*
X15302307Y-12877764D01*
X15473735Y-12934907D02*
X15492783Y-12944430D01*
X15492783Y-12944430D02*
X15530878Y-12944430D01*
X15530878Y-12944430D02*
X15549926Y-12934907D01*
X15549926Y-12934907D02*
X15559450Y-12915859D01*
X15559450Y-12915859D02*
X15559450Y-12906335D01*
X15559450Y-12906335D02*
X15549926Y-12887287D01*
X15549926Y-12887287D02*
X15530878Y-12877764D01*
X15530878Y-12877764D02*
X15502307Y-12877764D01*
X15502307Y-12877764D02*
X15483259Y-12868240D01*
X15483259Y-12868240D02*
X15473735Y-12849192D01*
X15473735Y-12849192D02*
X15473735Y-12839668D01*
X15473735Y-12839668D02*
X15483259Y-12820621D01*
X15483259Y-12820621D02*
X15502307Y-12811097D01*
X15502307Y-12811097D02*
X15530878Y-12811097D01*
X15530878Y-12811097D02*
X15549926Y-12820621D01*
X15626116Y-13020621D02*
X15635640Y-13011097D01*
X15635640Y-13011097D02*
X15654688Y-12982526D01*
X15654688Y-12982526D02*
X15664212Y-12963478D01*
X15664212Y-12963478D02*
X15673735Y-12934907D01*
X15673735Y-12934907D02*
X15683259Y-12887287D01*
X15683259Y-12887287D02*
X15683259Y-12849192D01*
X15683259Y-12849192D02*
X15673735Y-12801573D01*
X15673735Y-12801573D02*
X15664212Y-12773002D01*
X15664212Y-12773002D02*
X15654688Y-12753954D01*
X15654688Y-12753954D02*
X15635640Y-12725383D01*
X15635640Y-12725383D02*
X15626116Y-12715859D01*
D13*
X10800253Y-13066147D02*
X10800253Y-13167747D01*
X10749453Y-13116947D02*
X10851053Y-13116947D01*
D11*
X11216592Y-13208430D02*
X11102306Y-13208430D01*
X11159449Y-13208430D02*
X11159449Y-13008430D01*
X11159449Y-13008430D02*
X11140402Y-13037002D01*
X11140402Y-13037002D02*
X11121354Y-13056049D01*
X11121354Y-13056049D02*
X11102306Y-13065573D01*
X11302306Y-13189383D02*
X11311830Y-13198907D01*
X11311830Y-13198907D02*
X11302306Y-13208430D01*
X11302306Y-13208430D02*
X11292783Y-13198907D01*
X11292783Y-13198907D02*
X11302306Y-13189383D01*
X11302306Y-13189383D02*
X11302306Y-13208430D01*
X11435640Y-13008430D02*
X11454687Y-13008430D01*
X11454687Y-13008430D02*
X11473735Y-13017954D01*
X11473735Y-13017954D02*
X11483259Y-13027478D01*
X11483259Y-13027478D02*
X11492783Y-13046526D01*
X11492783Y-13046526D02*
X11502306Y-13084621D01*
X11502306Y-13084621D02*
X11502306Y-13132240D01*
X11502306Y-13132240D02*
X11492783Y-13170335D01*
X11492783Y-13170335D02*
X11483259Y-13189383D01*
X11483259Y-13189383D02*
X11473735Y-13198907D01*
X11473735Y-13198907D02*
X11454687Y-13208430D01*
X11454687Y-13208430D02*
X11435640Y-13208430D01*
X11435640Y-13208430D02*
X11416592Y-13198907D01*
X11416592Y-13198907D02*
X11407068Y-13189383D01*
X11407068Y-13189383D02*
X11397544Y-13170335D01*
X11397544Y-13170335D02*
X11388021Y-13132240D01*
X11388021Y-13132240D02*
X11388021Y-13084621D01*
X11388021Y-13084621D02*
X11397544Y-13046526D01*
X11397544Y-13046526D02*
X11407068Y-13027478D01*
X11407068Y-13027478D02*
X11416592Y-13017954D01*
X11416592Y-13017954D02*
X11435640Y-13008430D01*
X11692783Y-13208430D02*
X11578497Y-13208430D01*
X11635640Y-13208430D02*
X11635640Y-13008430D01*
X11635640Y-13008430D02*
X11616592Y-13037002D01*
X11616592Y-13037002D02*
X11597544Y-13056049D01*
X11597544Y-13056049D02*
X11578497Y-13065573D01*
X11864211Y-13008430D02*
X11826116Y-13008430D01*
X11826116Y-13008430D02*
X11807068Y-13017954D01*
X11807068Y-13017954D02*
X11797544Y-13027478D01*
X11797544Y-13027478D02*
X11778497Y-13056049D01*
X11778497Y-13056049D02*
X11768973Y-13094145D01*
X11768973Y-13094145D02*
X11768973Y-13170335D01*
X11768973Y-13170335D02*
X11778497Y-13189383D01*
X11778497Y-13189383D02*
X11788021Y-13198907D01*
X11788021Y-13198907D02*
X11807068Y-13208430D01*
X11807068Y-13208430D02*
X11845164Y-13208430D01*
X11845164Y-13208430D02*
X11864211Y-13198907D01*
X11864211Y-13198907D02*
X11873735Y-13189383D01*
X11873735Y-13189383D02*
X11883259Y-13170335D01*
X11883259Y-13170335D02*
X11883259Y-13122716D01*
X11883259Y-13122716D02*
X11873735Y-13103668D01*
X11873735Y-13103668D02*
X11864211Y-13094145D01*
X11864211Y-13094145D02*
X11845164Y-13084621D01*
X11845164Y-13084621D02*
X11807068Y-13084621D01*
X11807068Y-13084621D02*
X11788021Y-13094145D01*
X11788021Y-13094145D02*
X11778497Y-13103668D01*
X11778497Y-13103668D02*
X11768973Y-13122716D01*
X11968973Y-13208430D02*
X11968973Y-13075097D01*
X11968973Y-13094145D02*
X11978497Y-13084621D01*
X11978497Y-13084621D02*
X11997544Y-13075097D01*
X11997544Y-13075097D02*
X12026116Y-13075097D01*
X12026116Y-13075097D02*
X12045164Y-13084621D01*
X12045164Y-13084621D02*
X12054687Y-13103668D01*
X12054687Y-13103668D02*
X12054687Y-13208430D01*
X12054687Y-13103668D02*
X12064211Y-13084621D01*
X12064211Y-13084621D02*
X12083259Y-13075097D01*
X12083259Y-13075097D02*
X12111830Y-13075097D01*
X12111830Y-13075097D02*
X12130878Y-13084621D01*
X12130878Y-13084621D02*
X12140402Y-13103668D01*
X12140402Y-13103668D02*
X12140402Y-13208430D01*
X12235640Y-13208430D02*
X12235640Y-13075097D01*
X12235640Y-13094145D02*
X12245164Y-13084621D01*
X12245164Y-13084621D02*
X12264211Y-13075097D01*
X12264211Y-13075097D02*
X12292783Y-13075097D01*
X12292783Y-13075097D02*
X12311830Y-13084621D01*
X12311830Y-13084621D02*
X12321354Y-13103668D01*
X12321354Y-13103668D02*
X12321354Y-13208430D01*
X12321354Y-13103668D02*
X12330878Y-13084621D01*
X12330878Y-13084621D02*
X12349925Y-13075097D01*
X12349925Y-13075097D02*
X12378497Y-13075097D01*
X12378497Y-13075097D02*
X12397545Y-13084621D01*
X12397545Y-13084621D02*
X12407068Y-13103668D01*
X12407068Y-13103668D02*
X12407068Y-13208430D01*
X12797545Y-12998907D02*
X12626116Y-13256049D01*
X13054687Y-13008430D02*
X13073735Y-13008430D01*
X13073735Y-13008430D02*
X13092783Y-13017954D01*
X13092783Y-13017954D02*
X13102307Y-13027478D01*
X13102307Y-13027478D02*
X13111830Y-13046526D01*
X13111830Y-13046526D02*
X13121354Y-13084621D01*
X13121354Y-13084621D02*
X13121354Y-13132240D01*
X13121354Y-13132240D02*
X13111830Y-13170335D01*
X13111830Y-13170335D02*
X13102307Y-13189383D01*
X13102307Y-13189383D02*
X13092783Y-13198907D01*
X13092783Y-13198907D02*
X13073735Y-13208430D01*
X13073735Y-13208430D02*
X13054687Y-13208430D01*
X13054687Y-13208430D02*
X13035640Y-13198907D01*
X13035640Y-13198907D02*
X13026116Y-13189383D01*
X13026116Y-13189383D02*
X13016592Y-13170335D01*
X13016592Y-13170335D02*
X13007068Y-13132240D01*
X13007068Y-13132240D02*
X13007068Y-13084621D01*
X13007068Y-13084621D02*
X13016592Y-13046526D01*
X13016592Y-13046526D02*
X13026116Y-13027478D01*
X13026116Y-13027478D02*
X13035640Y-13017954D01*
X13035640Y-13017954D02*
X13054687Y-13008430D01*
X13207068Y-13189383D02*
X13216592Y-13198907D01*
X13216592Y-13198907D02*
X13207068Y-13208430D01*
X13207068Y-13208430D02*
X13197545Y-13198907D01*
X13197545Y-13198907D02*
X13207068Y-13189383D01*
X13207068Y-13189383D02*
X13207068Y-13208430D01*
X13340402Y-13008430D02*
X13359449Y-13008430D01*
X13359449Y-13008430D02*
X13378497Y-13017954D01*
X13378497Y-13017954D02*
X13388021Y-13027478D01*
X13388021Y-13027478D02*
X13397545Y-13046526D01*
X13397545Y-13046526D02*
X13407068Y-13084621D01*
X13407068Y-13084621D02*
X13407068Y-13132240D01*
X13407068Y-13132240D02*
X13397545Y-13170335D01*
X13397545Y-13170335D02*
X13388021Y-13189383D01*
X13388021Y-13189383D02*
X13378497Y-13198907D01*
X13378497Y-13198907D02*
X13359449Y-13208430D01*
X13359449Y-13208430D02*
X13340402Y-13208430D01*
X13340402Y-13208430D02*
X13321354Y-13198907D01*
X13321354Y-13198907D02*
X13311830Y-13189383D01*
X13311830Y-13189383D02*
X13302307Y-13170335D01*
X13302307Y-13170335D02*
X13292783Y-13132240D01*
X13292783Y-13132240D02*
X13292783Y-13084621D01*
X13292783Y-13084621D02*
X13302307Y-13046526D01*
X13302307Y-13046526D02*
X13311830Y-13027478D01*
X13311830Y-13027478D02*
X13321354Y-13017954D01*
X13321354Y-13017954D02*
X13340402Y-13008430D01*
X13578497Y-13075097D02*
X13578497Y-13208430D01*
X13530878Y-12998907D02*
X13483259Y-13141764D01*
X13483259Y-13141764D02*
X13607068Y-13141764D01*
X13721354Y-13008430D02*
X13740402Y-13008430D01*
X13740402Y-13008430D02*
X13759449Y-13017954D01*
X13759449Y-13017954D02*
X13768973Y-13027478D01*
X13768973Y-13027478D02*
X13778497Y-13046526D01*
X13778497Y-13046526D02*
X13788021Y-13084621D01*
X13788021Y-13084621D02*
X13788021Y-13132240D01*
X13788021Y-13132240D02*
X13778497Y-13170335D01*
X13778497Y-13170335D02*
X13768973Y-13189383D01*
X13768973Y-13189383D02*
X13759449Y-13198907D01*
X13759449Y-13198907D02*
X13740402Y-13208430D01*
X13740402Y-13208430D02*
X13721354Y-13208430D01*
X13721354Y-13208430D02*
X13702307Y-13198907D01*
X13702307Y-13198907D02*
X13692783Y-13189383D01*
X13692783Y-13189383D02*
X13683259Y-13170335D01*
X13683259Y-13170335D02*
X13673735Y-13132240D01*
X13673735Y-13132240D02*
X13673735Y-13084621D01*
X13673735Y-13084621D02*
X13683259Y-13046526D01*
X13683259Y-13046526D02*
X13692783Y-13027478D01*
X13692783Y-13027478D02*
X13702307Y-13017954D01*
X13702307Y-13017954D02*
X13721354Y-13008430D01*
X13911830Y-13008430D02*
X13930878Y-13008430D01*
X13930878Y-13008430D02*
X13949926Y-13017954D01*
X13949926Y-13017954D02*
X13959449Y-13027478D01*
X13959449Y-13027478D02*
X13968973Y-13046526D01*
X13968973Y-13046526D02*
X13978497Y-13084621D01*
X13978497Y-13084621D02*
X13978497Y-13132240D01*
X13978497Y-13132240D02*
X13968973Y-13170335D01*
X13968973Y-13170335D02*
X13959449Y-13189383D01*
X13959449Y-13189383D02*
X13949926Y-13198907D01*
X13949926Y-13198907D02*
X13930878Y-13208430D01*
X13930878Y-13208430D02*
X13911830Y-13208430D01*
X13911830Y-13208430D02*
X13892783Y-13198907D01*
X13892783Y-13198907D02*
X13883259Y-13189383D01*
X13883259Y-13189383D02*
X13873735Y-13170335D01*
X13873735Y-13170335D02*
X13864211Y-13132240D01*
X13864211Y-13132240D02*
X13864211Y-13084621D01*
X13864211Y-13084621D02*
X13873735Y-13046526D01*
X13873735Y-13046526D02*
X13883259Y-13027478D01*
X13883259Y-13027478D02*
X13892783Y-13017954D01*
X13892783Y-13017954D02*
X13911830Y-13008430D01*
X14054688Y-13008430D02*
X14054688Y-13046526D01*
X14130878Y-13008430D02*
X14130878Y-13046526D01*
X14426116Y-13284621D02*
X14416592Y-13275097D01*
X14416592Y-13275097D02*
X14397545Y-13246526D01*
X14397545Y-13246526D02*
X14388021Y-13227478D01*
X14388021Y-13227478D02*
X14378497Y-13198907D01*
X14378497Y-13198907D02*
X14368973Y-13151287D01*
X14368973Y-13151287D02*
X14368973Y-13113192D01*
X14368973Y-13113192D02*
X14378497Y-13065573D01*
X14378497Y-13065573D02*
X14388021Y-13037002D01*
X14388021Y-13037002D02*
X14397545Y-13017954D01*
X14397545Y-13017954D02*
X14416592Y-12989383D01*
X14416592Y-12989383D02*
X14426116Y-12979859D01*
X14511830Y-13208430D02*
X14549926Y-13208430D01*
X14549926Y-13208430D02*
X14568973Y-13198907D01*
X14568973Y-13198907D02*
X14578497Y-13189383D01*
X14578497Y-13189383D02*
X14597545Y-13160811D01*
X14597545Y-13160811D02*
X14607069Y-13122716D01*
X14607069Y-13122716D02*
X14607069Y-13046526D01*
X14607069Y-13046526D02*
X14597545Y-13027478D01*
X14597545Y-13027478D02*
X14588021Y-13017954D01*
X14588021Y-13017954D02*
X14568973Y-13008430D01*
X14568973Y-13008430D02*
X14530878Y-13008430D01*
X14530878Y-13008430D02*
X14511830Y-13017954D01*
X14511830Y-13017954D02*
X14502307Y-13027478D01*
X14502307Y-13027478D02*
X14492783Y-13046526D01*
X14492783Y-13046526D02*
X14492783Y-13094145D01*
X14492783Y-13094145D02*
X14502307Y-13113192D01*
X14502307Y-13113192D02*
X14511830Y-13122716D01*
X14511830Y-13122716D02*
X14530878Y-13132240D01*
X14530878Y-13132240D02*
X14568973Y-13132240D01*
X14568973Y-13132240D02*
X14588021Y-13122716D01*
X14588021Y-13122716D02*
X14597545Y-13113192D01*
X14597545Y-13113192D02*
X14607069Y-13094145D01*
X14845164Y-13208430D02*
X14845164Y-13008430D01*
X14930878Y-13208430D02*
X14930878Y-13103668D01*
X14930878Y-13103668D02*
X14921354Y-13084621D01*
X14921354Y-13084621D02*
X14902307Y-13075097D01*
X14902307Y-13075097D02*
X14873735Y-13075097D01*
X14873735Y-13075097D02*
X14854688Y-13084621D01*
X14854688Y-13084621D02*
X14845164Y-13094145D01*
X15054688Y-13208430D02*
X15035640Y-13198907D01*
X15035640Y-13198907D02*
X15026116Y-13189383D01*
X15026116Y-13189383D02*
X15016592Y-13170335D01*
X15016592Y-13170335D02*
X15016592Y-13113192D01*
X15016592Y-13113192D02*
X15026116Y-13094145D01*
X15026116Y-13094145D02*
X15035640Y-13084621D01*
X15035640Y-13084621D02*
X15054688Y-13075097D01*
X15054688Y-13075097D02*
X15083259Y-13075097D01*
X15083259Y-13075097D02*
X15102307Y-13084621D01*
X15102307Y-13084621D02*
X15111831Y-13094145D01*
X15111831Y-13094145D02*
X15121354Y-13113192D01*
X15121354Y-13113192D02*
X15121354Y-13170335D01*
X15121354Y-13170335D02*
X15111831Y-13189383D01*
X15111831Y-13189383D02*
X15102307Y-13198907D01*
X15102307Y-13198907D02*
X15083259Y-13208430D01*
X15083259Y-13208430D02*
X15054688Y-13208430D01*
X15235640Y-13208430D02*
X15216592Y-13198907D01*
X15216592Y-13198907D02*
X15207069Y-13179859D01*
X15207069Y-13179859D02*
X15207069Y-13008430D01*
X15388021Y-13198907D02*
X15368973Y-13208430D01*
X15368973Y-13208430D02*
X15330878Y-13208430D01*
X15330878Y-13208430D02*
X15311831Y-13198907D01*
X15311831Y-13198907D02*
X15302307Y-13179859D01*
X15302307Y-13179859D02*
X15302307Y-13103668D01*
X15302307Y-13103668D02*
X15311831Y-13084621D01*
X15311831Y-13084621D02*
X15330878Y-13075097D01*
X15330878Y-13075097D02*
X15368973Y-13075097D01*
X15368973Y-13075097D02*
X15388021Y-13084621D01*
X15388021Y-13084621D02*
X15397545Y-13103668D01*
X15397545Y-13103668D02*
X15397545Y-13122716D01*
X15397545Y-13122716D02*
X15302307Y-13141764D01*
X15473735Y-13198907D02*
X15492783Y-13208430D01*
X15492783Y-13208430D02*
X15530878Y-13208430D01*
X15530878Y-13208430D02*
X15549926Y-13198907D01*
X15549926Y-13198907D02*
X15559450Y-13179859D01*
X15559450Y-13179859D02*
X15559450Y-13170335D01*
X15559450Y-13170335D02*
X15549926Y-13151287D01*
X15549926Y-13151287D02*
X15530878Y-13141764D01*
X15530878Y-13141764D02*
X15502307Y-13141764D01*
X15502307Y-13141764D02*
X15483259Y-13132240D01*
X15483259Y-13132240D02*
X15473735Y-13113192D01*
X15473735Y-13113192D02*
X15473735Y-13103668D01*
X15473735Y-13103668D02*
X15483259Y-13084621D01*
X15483259Y-13084621D02*
X15502307Y-13075097D01*
X15502307Y-13075097D02*
X15530878Y-13075097D01*
X15530878Y-13075097D02*
X15549926Y-13084621D01*
X15626116Y-13284621D02*
X15635640Y-13275097D01*
X15635640Y-13275097D02*
X15654688Y-13246526D01*
X15654688Y-13246526D02*
X15664212Y-13227478D01*
X15664212Y-13227478D02*
X15673735Y-13198907D01*
X15673735Y-13198907D02*
X15683259Y-13151287D01*
X15683259Y-13151287D02*
X15683259Y-13113192D01*
X15683259Y-13113192D02*
X15673735Y-13065573D01*
X15673735Y-13065573D02*
X15664212Y-13037002D01*
X15664212Y-13037002D02*
X15654688Y-13017954D01*
X15654688Y-13017954D02*
X15635640Y-12989383D01*
X15635640Y-12989383D02*
X15626116Y-12979859D01*
D14*
X10834945Y-13419838D02*
X10834945Y-13342055D01*
X10757162Y-13342055D01*
X10757162Y-13419838D01*
X10834945Y-13419838D01*
D11*
X11216592Y-13472430D02*
X11102306Y-13472430D01*
X11159449Y-13472430D02*
X11159449Y-13272430D01*
X11159449Y-13272430D02*
X11140402Y-13301002D01*
X11140402Y-13301002D02*
X11121354Y-13320049D01*
X11121354Y-13320049D02*
X11102306Y-13329573D01*
X11302306Y-13453383D02*
X11311830Y-13462907D01*
X11311830Y-13462907D02*
X11302306Y-13472430D01*
X11302306Y-13472430D02*
X11292783Y-13462907D01*
X11292783Y-13462907D02*
X11302306Y-13453383D01*
X11302306Y-13453383D02*
X11302306Y-13472430D01*
X11502306Y-13472430D02*
X11388021Y-13472430D01*
X11445163Y-13472430D02*
X11445163Y-13272430D01*
X11445163Y-13272430D02*
X11426116Y-13301002D01*
X11426116Y-13301002D02*
X11407068Y-13320049D01*
X11407068Y-13320049D02*
X11388021Y-13329573D01*
X11626116Y-13272430D02*
X11645164Y-13272430D01*
X11645164Y-13272430D02*
X11664211Y-13281954D01*
X11664211Y-13281954D02*
X11673735Y-13291478D01*
X11673735Y-13291478D02*
X11683259Y-13310526D01*
X11683259Y-13310526D02*
X11692783Y-13348621D01*
X11692783Y-13348621D02*
X11692783Y-13396240D01*
X11692783Y-13396240D02*
X11683259Y-13434335D01*
X11683259Y-13434335D02*
X11673735Y-13453383D01*
X11673735Y-13453383D02*
X11664211Y-13462907D01*
X11664211Y-13462907D02*
X11645164Y-13472430D01*
X11645164Y-13472430D02*
X11626116Y-13472430D01*
X11626116Y-13472430D02*
X11607068Y-13462907D01*
X11607068Y-13462907D02*
X11597544Y-13453383D01*
X11597544Y-13453383D02*
X11588021Y-13434335D01*
X11588021Y-13434335D02*
X11578497Y-13396240D01*
X11578497Y-13396240D02*
X11578497Y-13348621D01*
X11578497Y-13348621D02*
X11588021Y-13310526D01*
X11588021Y-13310526D02*
X11597544Y-13291478D01*
X11597544Y-13291478D02*
X11607068Y-13281954D01*
X11607068Y-13281954D02*
X11626116Y-13272430D01*
X11816592Y-13272430D02*
X11835640Y-13272430D01*
X11835640Y-13272430D02*
X11854687Y-13281954D01*
X11854687Y-13281954D02*
X11864211Y-13291478D01*
X11864211Y-13291478D02*
X11873735Y-13310526D01*
X11873735Y-13310526D02*
X11883259Y-13348621D01*
X11883259Y-13348621D02*
X11883259Y-13396240D01*
X11883259Y-13396240D02*
X11873735Y-13434335D01*
X11873735Y-13434335D02*
X11864211Y-13453383D01*
X11864211Y-13453383D02*
X11854687Y-13462907D01*
X11854687Y-13462907D02*
X11835640Y-13472430D01*
X11835640Y-13472430D02*
X11816592Y-13472430D01*
X11816592Y-13472430D02*
X11797544Y-13462907D01*
X11797544Y-13462907D02*
X11788021Y-13453383D01*
X11788021Y-13453383D02*
X11778497Y-13434335D01*
X11778497Y-13434335D02*
X11768973Y-13396240D01*
X11768973Y-13396240D02*
X11768973Y-13348621D01*
X11768973Y-13348621D02*
X11778497Y-13310526D01*
X11778497Y-13310526D02*
X11788021Y-13291478D01*
X11788021Y-13291478D02*
X11797544Y-13281954D01*
X11797544Y-13281954D02*
X11816592Y-13272430D01*
X11968973Y-13472430D02*
X11968973Y-13339097D01*
X11968973Y-13358145D02*
X11978497Y-13348621D01*
X11978497Y-13348621D02*
X11997544Y-13339097D01*
X11997544Y-13339097D02*
X12026116Y-13339097D01*
X12026116Y-13339097D02*
X12045164Y-13348621D01*
X12045164Y-13348621D02*
X12054687Y-13367668D01*
X12054687Y-13367668D02*
X12054687Y-13472430D01*
X12054687Y-13367668D02*
X12064211Y-13348621D01*
X12064211Y-13348621D02*
X12083259Y-13339097D01*
X12083259Y-13339097D02*
X12111830Y-13339097D01*
X12111830Y-13339097D02*
X12130878Y-13348621D01*
X12130878Y-13348621D02*
X12140402Y-13367668D01*
X12140402Y-13367668D02*
X12140402Y-13472430D01*
X12235640Y-13472430D02*
X12235640Y-13339097D01*
X12235640Y-13358145D02*
X12245164Y-13348621D01*
X12245164Y-13348621D02*
X12264211Y-13339097D01*
X12264211Y-13339097D02*
X12292783Y-13339097D01*
X12292783Y-13339097D02*
X12311830Y-13348621D01*
X12311830Y-13348621D02*
X12321354Y-13367668D01*
X12321354Y-13367668D02*
X12321354Y-13472430D01*
X12321354Y-13367668D02*
X12330878Y-13348621D01*
X12330878Y-13348621D02*
X12349925Y-13339097D01*
X12349925Y-13339097D02*
X12378497Y-13339097D01*
X12378497Y-13339097D02*
X12397545Y-13348621D01*
X12397545Y-13348621D02*
X12407068Y-13367668D01*
X12407068Y-13367668D02*
X12407068Y-13472430D01*
X12797545Y-13262907D02*
X12626116Y-13520049D01*
X13054687Y-13272430D02*
X13073735Y-13272430D01*
X13073735Y-13272430D02*
X13092783Y-13281954D01*
X13092783Y-13281954D02*
X13102307Y-13291478D01*
X13102307Y-13291478D02*
X13111830Y-13310526D01*
X13111830Y-13310526D02*
X13121354Y-13348621D01*
X13121354Y-13348621D02*
X13121354Y-13396240D01*
X13121354Y-13396240D02*
X13111830Y-13434335D01*
X13111830Y-13434335D02*
X13102307Y-13453383D01*
X13102307Y-13453383D02*
X13092783Y-13462907D01*
X13092783Y-13462907D02*
X13073735Y-13472430D01*
X13073735Y-13472430D02*
X13054687Y-13472430D01*
X13054687Y-13472430D02*
X13035640Y-13462907D01*
X13035640Y-13462907D02*
X13026116Y-13453383D01*
X13026116Y-13453383D02*
X13016592Y-13434335D01*
X13016592Y-13434335D02*
X13007068Y-13396240D01*
X13007068Y-13396240D02*
X13007068Y-13348621D01*
X13007068Y-13348621D02*
X13016592Y-13310526D01*
X13016592Y-13310526D02*
X13026116Y-13291478D01*
X13026116Y-13291478D02*
X13035640Y-13281954D01*
X13035640Y-13281954D02*
X13054687Y-13272430D01*
X13207068Y-13453383D02*
X13216592Y-13462907D01*
X13216592Y-13462907D02*
X13207068Y-13472430D01*
X13207068Y-13472430D02*
X13197545Y-13462907D01*
X13197545Y-13462907D02*
X13207068Y-13453383D01*
X13207068Y-13453383D02*
X13207068Y-13472430D01*
X13340402Y-13272430D02*
X13359449Y-13272430D01*
X13359449Y-13272430D02*
X13378497Y-13281954D01*
X13378497Y-13281954D02*
X13388021Y-13291478D01*
X13388021Y-13291478D02*
X13397545Y-13310526D01*
X13397545Y-13310526D02*
X13407068Y-13348621D01*
X13407068Y-13348621D02*
X13407068Y-13396240D01*
X13407068Y-13396240D02*
X13397545Y-13434335D01*
X13397545Y-13434335D02*
X13388021Y-13453383D01*
X13388021Y-13453383D02*
X13378497Y-13462907D01*
X13378497Y-13462907D02*
X13359449Y-13472430D01*
X13359449Y-13472430D02*
X13340402Y-13472430D01*
X13340402Y-13472430D02*
X13321354Y-13462907D01*
X13321354Y-13462907D02*
X13311830Y-13453383D01*
X13311830Y-13453383D02*
X13302307Y-13434335D01*
X13302307Y-13434335D02*
X13292783Y-13396240D01*
X13292783Y-13396240D02*
X13292783Y-13348621D01*
X13292783Y-13348621D02*
X13302307Y-13310526D01*
X13302307Y-13310526D02*
X13311830Y-13291478D01*
X13311830Y-13291478D02*
X13321354Y-13281954D01*
X13321354Y-13281954D02*
X13340402Y-13272430D01*
X13578497Y-13339097D02*
X13578497Y-13472430D01*
X13530878Y-13262907D02*
X13483259Y-13405764D01*
X13483259Y-13405764D02*
X13607068Y-13405764D01*
X13664211Y-13272430D02*
X13788021Y-13272430D01*
X13788021Y-13272430D02*
X13721354Y-13348621D01*
X13721354Y-13348621D02*
X13749926Y-13348621D01*
X13749926Y-13348621D02*
X13768973Y-13358145D01*
X13768973Y-13358145D02*
X13778497Y-13367668D01*
X13778497Y-13367668D02*
X13788021Y-13386716D01*
X13788021Y-13386716D02*
X13788021Y-13434335D01*
X13788021Y-13434335D02*
X13778497Y-13453383D01*
X13778497Y-13453383D02*
X13768973Y-13462907D01*
X13768973Y-13462907D02*
X13749926Y-13472430D01*
X13749926Y-13472430D02*
X13692783Y-13472430D01*
X13692783Y-13472430D02*
X13673735Y-13462907D01*
X13673735Y-13462907D02*
X13664211Y-13453383D01*
X13854688Y-13272430D02*
X13978497Y-13272430D01*
X13978497Y-13272430D02*
X13911830Y-13348621D01*
X13911830Y-13348621D02*
X13940402Y-13348621D01*
X13940402Y-13348621D02*
X13959449Y-13358145D01*
X13959449Y-13358145D02*
X13968973Y-13367668D01*
X13968973Y-13367668D02*
X13978497Y-13386716D01*
X13978497Y-13386716D02*
X13978497Y-13434335D01*
X13978497Y-13434335D02*
X13968973Y-13453383D01*
X13968973Y-13453383D02*
X13959449Y-13462907D01*
X13959449Y-13462907D02*
X13940402Y-13472430D01*
X13940402Y-13472430D02*
X13883259Y-13472430D01*
X13883259Y-13472430D02*
X13864211Y-13462907D01*
X13864211Y-13462907D02*
X13854688Y-13453383D01*
X14054688Y-13272430D02*
X14054688Y-13310526D01*
X14130878Y-13272430D02*
X14130878Y-13310526D01*
X14426116Y-13548621D02*
X14416592Y-13539097D01*
X14416592Y-13539097D02*
X14397545Y-13510526D01*
X14397545Y-13510526D02*
X14388021Y-13491478D01*
X14388021Y-13491478D02*
X14378497Y-13462907D01*
X14378497Y-13462907D02*
X14368973Y-13415287D01*
X14368973Y-13415287D02*
X14368973Y-13377192D01*
X14368973Y-13377192D02*
X14378497Y-13329573D01*
X14378497Y-13329573D02*
X14388021Y-13301002D01*
X14388021Y-13301002D02*
X14397545Y-13281954D01*
X14397545Y-13281954D02*
X14416592Y-13253383D01*
X14416592Y-13253383D02*
X14426116Y-13243859D01*
X14607069Y-13472430D02*
X14492783Y-13472430D01*
X14549926Y-13472430D02*
X14549926Y-13272430D01*
X14549926Y-13272430D02*
X14530878Y-13301002D01*
X14530878Y-13301002D02*
X14511830Y-13320049D01*
X14511830Y-13320049D02*
X14492783Y-13329573D01*
X14778497Y-13339097D02*
X14778497Y-13472430D01*
X14730878Y-13262907D02*
X14683259Y-13405764D01*
X14683259Y-13405764D02*
X14807069Y-13405764D01*
X15035640Y-13472430D02*
X15035640Y-13272430D01*
X15121354Y-13472430D02*
X15121354Y-13367668D01*
X15121354Y-13367668D02*
X15111831Y-13348621D01*
X15111831Y-13348621D02*
X15092783Y-13339097D01*
X15092783Y-13339097D02*
X15064211Y-13339097D01*
X15064211Y-13339097D02*
X15045164Y-13348621D01*
X15045164Y-13348621D02*
X15035640Y-13358145D01*
X15245164Y-13472430D02*
X15226116Y-13462907D01*
X15226116Y-13462907D02*
X15216592Y-13453383D01*
X15216592Y-13453383D02*
X15207069Y-13434335D01*
X15207069Y-13434335D02*
X15207069Y-13377192D01*
X15207069Y-13377192D02*
X15216592Y-13358145D01*
X15216592Y-13358145D02*
X15226116Y-13348621D01*
X15226116Y-13348621D02*
X15245164Y-13339097D01*
X15245164Y-13339097D02*
X15273735Y-13339097D01*
X15273735Y-13339097D02*
X15292783Y-13348621D01*
X15292783Y-13348621D02*
X15302307Y-13358145D01*
X15302307Y-13358145D02*
X15311831Y-13377192D01*
X15311831Y-13377192D02*
X15311831Y-13434335D01*
X15311831Y-13434335D02*
X15302307Y-13453383D01*
X15302307Y-13453383D02*
X15292783Y-13462907D01*
X15292783Y-13462907D02*
X15273735Y-13472430D01*
X15273735Y-13472430D02*
X15245164Y-13472430D01*
X15426116Y-13472430D02*
X15407069Y-13462907D01*
X15407069Y-13462907D02*
X15397545Y-13443859D01*
X15397545Y-13443859D02*
X15397545Y-13272430D01*
X15578497Y-13462907D02*
X15559450Y-13472430D01*
X15559450Y-13472430D02*
X15521354Y-13472430D01*
X15521354Y-13472430D02*
X15502307Y-13462907D01*
X15502307Y-13462907D02*
X15492783Y-13443859D01*
X15492783Y-13443859D02*
X15492783Y-13367668D01*
X15492783Y-13367668D02*
X15502307Y-13348621D01*
X15502307Y-13348621D02*
X15521354Y-13339097D01*
X15521354Y-13339097D02*
X15559450Y-13339097D01*
X15559450Y-13339097D02*
X15578497Y-13348621D01*
X15578497Y-13348621D02*
X15588021Y-13367668D01*
X15588021Y-13367668D02*
X15588021Y-13386716D01*
X15588021Y-13386716D02*
X15492783Y-13405764D01*
X15664212Y-13462907D02*
X15683259Y-13472430D01*
X15683259Y-13472430D02*
X15721354Y-13472430D01*
X15721354Y-13472430D02*
X15740402Y-13462907D01*
X15740402Y-13462907D02*
X15749926Y-13443859D01*
X15749926Y-13443859D02*
X15749926Y-13434335D01*
X15749926Y-13434335D02*
X15740402Y-13415287D01*
X15740402Y-13415287D02*
X15721354Y-13405764D01*
X15721354Y-13405764D02*
X15692783Y-13405764D01*
X15692783Y-13405764D02*
X15673735Y-13396240D01*
X15673735Y-13396240D02*
X15664212Y-13377192D01*
X15664212Y-13377192D02*
X15664212Y-13367668D01*
X15664212Y-13367668D02*
X15673735Y-13348621D01*
X15673735Y-13348621D02*
X15692783Y-13339097D01*
X15692783Y-13339097D02*
X15721354Y-13339097D01*
X15721354Y-13339097D02*
X15740402Y-13348621D01*
X15816593Y-13548621D02*
X15826116Y-13539097D01*
X15826116Y-13539097D02*
X15845164Y-13510526D01*
X15845164Y-13510526D02*
X15854688Y-13491478D01*
X15854688Y-13491478D02*
X15864212Y-13462907D01*
X15864212Y-13462907D02*
X15873735Y-13415287D01*
X15873735Y-13415287D02*
X15873735Y-13377192D01*
X15873735Y-13377192D02*
X15864212Y-13329573D01*
X15864212Y-13329573D02*
X15854688Y-13301002D01*
X15854688Y-13301002D02*
X15845164Y-13281954D01*
X15845164Y-13281954D02*
X15826116Y-13253383D01*
X15826116Y-13253383D02*
X15816593Y-13243859D01*
D15*
X10775053Y-13720947D02*
X10851053Y-13644947D01*
X10775053Y-13568947D01*
X10699053Y-13644947D01*
X10775053Y-13720947D01*
D11*
X11216592Y-13736430D02*
X11102306Y-13736430D01*
X11159449Y-13736430D02*
X11159449Y-13536430D01*
X11159449Y-13536430D02*
X11140402Y-13565002D01*
X11140402Y-13565002D02*
X11121354Y-13584049D01*
X11121354Y-13584049D02*
X11102306Y-13593573D01*
X11302306Y-13717383D02*
X11311830Y-13726907D01*
X11311830Y-13726907D02*
X11302306Y-13736430D01*
X11302306Y-13736430D02*
X11292783Y-13726907D01*
X11292783Y-13726907D02*
X11302306Y-13717383D01*
X11302306Y-13717383D02*
X11302306Y-13736430D01*
X11492783Y-13536430D02*
X11397544Y-13536430D01*
X11397544Y-13536430D02*
X11388021Y-13631668D01*
X11388021Y-13631668D02*
X11397544Y-13622145D01*
X11397544Y-13622145D02*
X11416592Y-13612621D01*
X11416592Y-13612621D02*
X11464211Y-13612621D01*
X11464211Y-13612621D02*
X11483259Y-13622145D01*
X11483259Y-13622145D02*
X11492783Y-13631668D01*
X11492783Y-13631668D02*
X11502306Y-13650716D01*
X11502306Y-13650716D02*
X11502306Y-13698335D01*
X11502306Y-13698335D02*
X11492783Y-13717383D01*
X11492783Y-13717383D02*
X11483259Y-13726907D01*
X11483259Y-13726907D02*
X11464211Y-13736430D01*
X11464211Y-13736430D02*
X11416592Y-13736430D01*
X11416592Y-13736430D02*
X11397544Y-13726907D01*
X11397544Y-13726907D02*
X11388021Y-13717383D01*
X11578497Y-13555478D02*
X11588021Y-13545954D01*
X11588021Y-13545954D02*
X11607068Y-13536430D01*
X11607068Y-13536430D02*
X11654687Y-13536430D01*
X11654687Y-13536430D02*
X11673735Y-13545954D01*
X11673735Y-13545954D02*
X11683259Y-13555478D01*
X11683259Y-13555478D02*
X11692783Y-13574526D01*
X11692783Y-13574526D02*
X11692783Y-13593573D01*
X11692783Y-13593573D02*
X11683259Y-13622145D01*
X11683259Y-13622145D02*
X11568973Y-13736430D01*
X11568973Y-13736430D02*
X11692783Y-13736430D01*
X11816592Y-13536430D02*
X11835640Y-13536430D01*
X11835640Y-13536430D02*
X11854687Y-13545954D01*
X11854687Y-13545954D02*
X11864211Y-13555478D01*
X11864211Y-13555478D02*
X11873735Y-13574526D01*
X11873735Y-13574526D02*
X11883259Y-13612621D01*
X11883259Y-13612621D02*
X11883259Y-13660240D01*
X11883259Y-13660240D02*
X11873735Y-13698335D01*
X11873735Y-13698335D02*
X11864211Y-13717383D01*
X11864211Y-13717383D02*
X11854687Y-13726907D01*
X11854687Y-13726907D02*
X11835640Y-13736430D01*
X11835640Y-13736430D02*
X11816592Y-13736430D01*
X11816592Y-13736430D02*
X11797544Y-13726907D01*
X11797544Y-13726907D02*
X11788021Y-13717383D01*
X11788021Y-13717383D02*
X11778497Y-13698335D01*
X11778497Y-13698335D02*
X11768973Y-13660240D01*
X11768973Y-13660240D02*
X11768973Y-13612621D01*
X11768973Y-13612621D02*
X11778497Y-13574526D01*
X11778497Y-13574526D02*
X11788021Y-13555478D01*
X11788021Y-13555478D02*
X11797544Y-13545954D01*
X11797544Y-13545954D02*
X11816592Y-13536430D01*
X11968973Y-13736430D02*
X11968973Y-13603097D01*
X11968973Y-13622145D02*
X11978497Y-13612621D01*
X11978497Y-13612621D02*
X11997544Y-13603097D01*
X11997544Y-13603097D02*
X12026116Y-13603097D01*
X12026116Y-13603097D02*
X12045164Y-13612621D01*
X12045164Y-13612621D02*
X12054687Y-13631668D01*
X12054687Y-13631668D02*
X12054687Y-13736430D01*
X12054687Y-13631668D02*
X12064211Y-13612621D01*
X12064211Y-13612621D02*
X12083259Y-13603097D01*
X12083259Y-13603097D02*
X12111830Y-13603097D01*
X12111830Y-13603097D02*
X12130878Y-13612621D01*
X12130878Y-13612621D02*
X12140402Y-13631668D01*
X12140402Y-13631668D02*
X12140402Y-13736430D01*
X12235640Y-13736430D02*
X12235640Y-13603097D01*
X12235640Y-13622145D02*
X12245164Y-13612621D01*
X12245164Y-13612621D02*
X12264211Y-13603097D01*
X12264211Y-13603097D02*
X12292783Y-13603097D01*
X12292783Y-13603097D02*
X12311830Y-13612621D01*
X12311830Y-13612621D02*
X12321354Y-13631668D01*
X12321354Y-13631668D02*
X12321354Y-13736430D01*
X12321354Y-13631668D02*
X12330878Y-13612621D01*
X12330878Y-13612621D02*
X12349925Y-13603097D01*
X12349925Y-13603097D02*
X12378497Y-13603097D01*
X12378497Y-13603097D02*
X12397545Y-13612621D01*
X12397545Y-13612621D02*
X12407068Y-13631668D01*
X12407068Y-13631668D02*
X12407068Y-13736430D01*
X12797545Y-13526907D02*
X12626116Y-13784049D01*
X13054687Y-13536430D02*
X13073735Y-13536430D01*
X13073735Y-13536430D02*
X13092783Y-13545954D01*
X13092783Y-13545954D02*
X13102307Y-13555478D01*
X13102307Y-13555478D02*
X13111830Y-13574526D01*
X13111830Y-13574526D02*
X13121354Y-13612621D01*
X13121354Y-13612621D02*
X13121354Y-13660240D01*
X13121354Y-13660240D02*
X13111830Y-13698335D01*
X13111830Y-13698335D02*
X13102307Y-13717383D01*
X13102307Y-13717383D02*
X13092783Y-13726907D01*
X13092783Y-13726907D02*
X13073735Y-13736430D01*
X13073735Y-13736430D02*
X13054687Y-13736430D01*
X13054687Y-13736430D02*
X13035640Y-13726907D01*
X13035640Y-13726907D02*
X13026116Y-13717383D01*
X13026116Y-13717383D02*
X13016592Y-13698335D01*
X13016592Y-13698335D02*
X13007068Y-13660240D01*
X13007068Y-13660240D02*
X13007068Y-13612621D01*
X13007068Y-13612621D02*
X13016592Y-13574526D01*
X13016592Y-13574526D02*
X13026116Y-13555478D01*
X13026116Y-13555478D02*
X13035640Y-13545954D01*
X13035640Y-13545954D02*
X13054687Y-13536430D01*
X13207068Y-13717383D02*
X13216592Y-13726907D01*
X13216592Y-13726907D02*
X13207068Y-13736430D01*
X13207068Y-13736430D02*
X13197545Y-13726907D01*
X13197545Y-13726907D02*
X13207068Y-13717383D01*
X13207068Y-13717383D02*
X13207068Y-13736430D01*
X13340402Y-13536430D02*
X13359449Y-13536430D01*
X13359449Y-13536430D02*
X13378497Y-13545954D01*
X13378497Y-13545954D02*
X13388021Y-13555478D01*
X13388021Y-13555478D02*
X13397545Y-13574526D01*
X13397545Y-13574526D02*
X13407068Y-13612621D01*
X13407068Y-13612621D02*
X13407068Y-13660240D01*
X13407068Y-13660240D02*
X13397545Y-13698335D01*
X13397545Y-13698335D02*
X13388021Y-13717383D01*
X13388021Y-13717383D02*
X13378497Y-13726907D01*
X13378497Y-13726907D02*
X13359449Y-13736430D01*
X13359449Y-13736430D02*
X13340402Y-13736430D01*
X13340402Y-13736430D02*
X13321354Y-13726907D01*
X13321354Y-13726907D02*
X13311830Y-13717383D01*
X13311830Y-13717383D02*
X13302307Y-13698335D01*
X13302307Y-13698335D02*
X13292783Y-13660240D01*
X13292783Y-13660240D02*
X13292783Y-13612621D01*
X13292783Y-13612621D02*
X13302307Y-13574526D01*
X13302307Y-13574526D02*
X13311830Y-13555478D01*
X13311830Y-13555478D02*
X13321354Y-13545954D01*
X13321354Y-13545954D02*
X13340402Y-13536430D01*
X13588021Y-13536430D02*
X13492783Y-13536430D01*
X13492783Y-13536430D02*
X13483259Y-13631668D01*
X13483259Y-13631668D02*
X13492783Y-13622145D01*
X13492783Y-13622145D02*
X13511830Y-13612621D01*
X13511830Y-13612621D02*
X13559449Y-13612621D01*
X13559449Y-13612621D02*
X13578497Y-13622145D01*
X13578497Y-13622145D02*
X13588021Y-13631668D01*
X13588021Y-13631668D02*
X13597545Y-13650716D01*
X13597545Y-13650716D02*
X13597545Y-13698335D01*
X13597545Y-13698335D02*
X13588021Y-13717383D01*
X13588021Y-13717383D02*
X13578497Y-13726907D01*
X13578497Y-13726907D02*
X13559449Y-13736430D01*
X13559449Y-13736430D02*
X13511830Y-13736430D01*
X13511830Y-13736430D02*
X13492783Y-13726907D01*
X13492783Y-13726907D02*
X13483259Y-13717383D01*
X13692783Y-13736430D02*
X13730878Y-13736430D01*
X13730878Y-13736430D02*
X13749926Y-13726907D01*
X13749926Y-13726907D02*
X13759449Y-13717383D01*
X13759449Y-13717383D02*
X13778497Y-13688811D01*
X13778497Y-13688811D02*
X13788021Y-13650716D01*
X13788021Y-13650716D02*
X13788021Y-13574526D01*
X13788021Y-13574526D02*
X13778497Y-13555478D01*
X13778497Y-13555478D02*
X13768973Y-13545954D01*
X13768973Y-13545954D02*
X13749926Y-13536430D01*
X13749926Y-13536430D02*
X13711830Y-13536430D01*
X13711830Y-13536430D02*
X13692783Y-13545954D01*
X13692783Y-13545954D02*
X13683259Y-13555478D01*
X13683259Y-13555478D02*
X13673735Y-13574526D01*
X13673735Y-13574526D02*
X13673735Y-13622145D01*
X13673735Y-13622145D02*
X13683259Y-13641192D01*
X13683259Y-13641192D02*
X13692783Y-13650716D01*
X13692783Y-13650716D02*
X13711830Y-13660240D01*
X13711830Y-13660240D02*
X13749926Y-13660240D01*
X13749926Y-13660240D02*
X13768973Y-13650716D01*
X13768973Y-13650716D02*
X13778497Y-13641192D01*
X13778497Y-13641192D02*
X13788021Y-13622145D01*
X13902307Y-13622145D02*
X13883259Y-13612621D01*
X13883259Y-13612621D02*
X13873735Y-13603097D01*
X13873735Y-13603097D02*
X13864211Y-13584049D01*
X13864211Y-13584049D02*
X13864211Y-13574526D01*
X13864211Y-13574526D02*
X13873735Y-13555478D01*
X13873735Y-13555478D02*
X13883259Y-13545954D01*
X13883259Y-13545954D02*
X13902307Y-13536430D01*
X13902307Y-13536430D02*
X13940402Y-13536430D01*
X13940402Y-13536430D02*
X13959449Y-13545954D01*
X13959449Y-13545954D02*
X13968973Y-13555478D01*
X13968973Y-13555478D02*
X13978497Y-13574526D01*
X13978497Y-13574526D02*
X13978497Y-13584049D01*
X13978497Y-13584049D02*
X13968973Y-13603097D01*
X13968973Y-13603097D02*
X13959449Y-13612621D01*
X13959449Y-13612621D02*
X13940402Y-13622145D01*
X13940402Y-13622145D02*
X13902307Y-13622145D01*
X13902307Y-13622145D02*
X13883259Y-13631668D01*
X13883259Y-13631668D02*
X13873735Y-13641192D01*
X13873735Y-13641192D02*
X13864211Y-13660240D01*
X13864211Y-13660240D02*
X13864211Y-13698335D01*
X13864211Y-13698335D02*
X13873735Y-13717383D01*
X13873735Y-13717383D02*
X13883259Y-13726907D01*
X13883259Y-13726907D02*
X13902307Y-13736430D01*
X13902307Y-13736430D02*
X13940402Y-13736430D01*
X13940402Y-13736430D02*
X13959449Y-13726907D01*
X13959449Y-13726907D02*
X13968973Y-13717383D01*
X13968973Y-13717383D02*
X13978497Y-13698335D01*
X13978497Y-13698335D02*
X13978497Y-13660240D01*
X13978497Y-13660240D02*
X13968973Y-13641192D01*
X13968973Y-13641192D02*
X13959449Y-13631668D01*
X13959449Y-13631668D02*
X13940402Y-13622145D01*
X14054688Y-13536430D02*
X14054688Y-13574526D01*
X14130878Y-13536430D02*
X14130878Y-13574526D01*
X14426116Y-13812621D02*
X14416592Y-13803097D01*
X14416592Y-13803097D02*
X14397545Y-13774526D01*
X14397545Y-13774526D02*
X14388021Y-13755478D01*
X14388021Y-13755478D02*
X14378497Y-13726907D01*
X14378497Y-13726907D02*
X14368973Y-13679287D01*
X14368973Y-13679287D02*
X14368973Y-13641192D01*
X14368973Y-13641192D02*
X14378497Y-13593573D01*
X14378497Y-13593573D02*
X14388021Y-13565002D01*
X14388021Y-13565002D02*
X14397545Y-13545954D01*
X14397545Y-13545954D02*
X14416592Y-13517383D01*
X14416592Y-13517383D02*
X14426116Y-13507859D01*
X14607069Y-13736430D02*
X14492783Y-13736430D01*
X14549926Y-13736430D02*
X14549926Y-13536430D01*
X14549926Y-13536430D02*
X14530878Y-13565002D01*
X14530878Y-13565002D02*
X14511830Y-13584049D01*
X14511830Y-13584049D02*
X14492783Y-13593573D01*
X14683259Y-13555478D02*
X14692783Y-13545954D01*
X14692783Y-13545954D02*
X14711830Y-13536430D01*
X14711830Y-13536430D02*
X14759450Y-13536430D01*
X14759450Y-13536430D02*
X14778497Y-13545954D01*
X14778497Y-13545954D02*
X14788021Y-13555478D01*
X14788021Y-13555478D02*
X14797545Y-13574526D01*
X14797545Y-13574526D02*
X14797545Y-13593573D01*
X14797545Y-13593573D02*
X14788021Y-13622145D01*
X14788021Y-13622145D02*
X14673735Y-13736430D01*
X14673735Y-13736430D02*
X14797545Y-13736430D01*
X15035640Y-13736430D02*
X15035640Y-13536430D01*
X15121354Y-13736430D02*
X15121354Y-13631668D01*
X15121354Y-13631668D02*
X15111831Y-13612621D01*
X15111831Y-13612621D02*
X15092783Y-13603097D01*
X15092783Y-13603097D02*
X15064211Y-13603097D01*
X15064211Y-13603097D02*
X15045164Y-13612621D01*
X15045164Y-13612621D02*
X15035640Y-13622145D01*
X15245164Y-13736430D02*
X15226116Y-13726907D01*
X15226116Y-13726907D02*
X15216592Y-13717383D01*
X15216592Y-13717383D02*
X15207069Y-13698335D01*
X15207069Y-13698335D02*
X15207069Y-13641192D01*
X15207069Y-13641192D02*
X15216592Y-13622145D01*
X15216592Y-13622145D02*
X15226116Y-13612621D01*
X15226116Y-13612621D02*
X15245164Y-13603097D01*
X15245164Y-13603097D02*
X15273735Y-13603097D01*
X15273735Y-13603097D02*
X15292783Y-13612621D01*
X15292783Y-13612621D02*
X15302307Y-13622145D01*
X15302307Y-13622145D02*
X15311831Y-13641192D01*
X15311831Y-13641192D02*
X15311831Y-13698335D01*
X15311831Y-13698335D02*
X15302307Y-13717383D01*
X15302307Y-13717383D02*
X15292783Y-13726907D01*
X15292783Y-13726907D02*
X15273735Y-13736430D01*
X15273735Y-13736430D02*
X15245164Y-13736430D01*
X15426116Y-13736430D02*
X15407069Y-13726907D01*
X15407069Y-13726907D02*
X15397545Y-13707859D01*
X15397545Y-13707859D02*
X15397545Y-13536430D01*
X15578497Y-13726907D02*
X15559450Y-13736430D01*
X15559450Y-13736430D02*
X15521354Y-13736430D01*
X15521354Y-13736430D02*
X15502307Y-13726907D01*
X15502307Y-13726907D02*
X15492783Y-13707859D01*
X15492783Y-13707859D02*
X15492783Y-13631668D01*
X15492783Y-13631668D02*
X15502307Y-13612621D01*
X15502307Y-13612621D02*
X15521354Y-13603097D01*
X15521354Y-13603097D02*
X15559450Y-13603097D01*
X15559450Y-13603097D02*
X15578497Y-13612621D01*
X15578497Y-13612621D02*
X15588021Y-13631668D01*
X15588021Y-13631668D02*
X15588021Y-13650716D01*
X15588021Y-13650716D02*
X15492783Y-13669764D01*
X15664212Y-13726907D02*
X15683259Y-13736430D01*
X15683259Y-13736430D02*
X15721354Y-13736430D01*
X15721354Y-13736430D02*
X15740402Y-13726907D01*
X15740402Y-13726907D02*
X15749926Y-13707859D01*
X15749926Y-13707859D02*
X15749926Y-13698335D01*
X15749926Y-13698335D02*
X15740402Y-13679287D01*
X15740402Y-13679287D02*
X15721354Y-13669764D01*
X15721354Y-13669764D02*
X15692783Y-13669764D01*
X15692783Y-13669764D02*
X15673735Y-13660240D01*
X15673735Y-13660240D02*
X15664212Y-13641192D01*
X15664212Y-13641192D02*
X15664212Y-13631668D01*
X15664212Y-13631668D02*
X15673735Y-13612621D01*
X15673735Y-13612621D02*
X15692783Y-13603097D01*
X15692783Y-13603097D02*
X15721354Y-13603097D01*
X15721354Y-13603097D02*
X15740402Y-13612621D01*
X15816593Y-13812621D02*
X15826116Y-13803097D01*
X15826116Y-13803097D02*
X15845164Y-13774526D01*
X15845164Y-13774526D02*
X15854688Y-13755478D01*
X15854688Y-13755478D02*
X15864212Y-13726907D01*
X15864212Y-13726907D02*
X15873735Y-13679287D01*
X15873735Y-13679287D02*
X15873735Y-13641192D01*
X15873735Y-13641192D02*
X15864212Y-13593573D01*
X15864212Y-13593573D02*
X15854688Y-13565002D01*
X15854688Y-13565002D02*
X15845164Y-13545954D01*
X15845164Y-13545954D02*
X15826116Y-13517383D01*
X15826116Y-13517383D02*
X15816593Y-13507859D01*
X10651053Y-13816947D02*
X10851053Y-14016947D01*
X10851053Y-13816947D02*
X10651053Y-14016947D01*
X10851053Y-13916947D02*
G75*
G02*
X10651053Y-13916947I-100000J0D01*
G01*
X10651053Y-13916947D02*
G75*
G02*
X10851053Y-13916947I100000J0D01*
G01*
X11092783Y-13808430D02*
X11216592Y-13808430D01*
X11216592Y-13808430D02*
X11149925Y-13884621D01*
X11149925Y-13884621D02*
X11178497Y-13884621D01*
X11178497Y-13884621D02*
X11197544Y-13894145D01*
X11197544Y-13894145D02*
X11207068Y-13903668D01*
X11207068Y-13903668D02*
X11216592Y-13922716D01*
X11216592Y-13922716D02*
X11216592Y-13970335D01*
X11216592Y-13970335D02*
X11207068Y-13989383D01*
X11207068Y-13989383D02*
X11197544Y-13998907D01*
X11197544Y-13998907D02*
X11178497Y-14008430D01*
X11178497Y-14008430D02*
X11121354Y-14008430D01*
X11121354Y-14008430D02*
X11102306Y-13998907D01*
X11102306Y-13998907D02*
X11092783Y-13989383D01*
X11302306Y-13989383D02*
X11311830Y-13998907D01*
X11311830Y-13998907D02*
X11302306Y-14008430D01*
X11302306Y-14008430D02*
X11292783Y-13998907D01*
X11292783Y-13998907D02*
X11302306Y-13989383D01*
X11302306Y-13989383D02*
X11302306Y-14008430D01*
X11388021Y-13827478D02*
X11397544Y-13817954D01*
X11397544Y-13817954D02*
X11416592Y-13808430D01*
X11416592Y-13808430D02*
X11464211Y-13808430D01*
X11464211Y-13808430D02*
X11483259Y-13817954D01*
X11483259Y-13817954D02*
X11492783Y-13827478D01*
X11492783Y-13827478D02*
X11502306Y-13846526D01*
X11502306Y-13846526D02*
X11502306Y-13865573D01*
X11502306Y-13865573D02*
X11492783Y-13894145D01*
X11492783Y-13894145D02*
X11378497Y-14008430D01*
X11378497Y-14008430D02*
X11502306Y-14008430D01*
X11626116Y-13808430D02*
X11645164Y-13808430D01*
X11645164Y-13808430D02*
X11664211Y-13817954D01*
X11664211Y-13817954D02*
X11673735Y-13827478D01*
X11673735Y-13827478D02*
X11683259Y-13846526D01*
X11683259Y-13846526D02*
X11692783Y-13884621D01*
X11692783Y-13884621D02*
X11692783Y-13932240D01*
X11692783Y-13932240D02*
X11683259Y-13970335D01*
X11683259Y-13970335D02*
X11673735Y-13989383D01*
X11673735Y-13989383D02*
X11664211Y-13998907D01*
X11664211Y-13998907D02*
X11645164Y-14008430D01*
X11645164Y-14008430D02*
X11626116Y-14008430D01*
X11626116Y-14008430D02*
X11607068Y-13998907D01*
X11607068Y-13998907D02*
X11597544Y-13989383D01*
X11597544Y-13989383D02*
X11588021Y-13970335D01*
X11588021Y-13970335D02*
X11578497Y-13932240D01*
X11578497Y-13932240D02*
X11578497Y-13884621D01*
X11578497Y-13884621D02*
X11588021Y-13846526D01*
X11588021Y-13846526D02*
X11597544Y-13827478D01*
X11597544Y-13827478D02*
X11607068Y-13817954D01*
X11607068Y-13817954D02*
X11626116Y-13808430D01*
X11816592Y-13808430D02*
X11835640Y-13808430D01*
X11835640Y-13808430D02*
X11854687Y-13817954D01*
X11854687Y-13817954D02*
X11864211Y-13827478D01*
X11864211Y-13827478D02*
X11873735Y-13846526D01*
X11873735Y-13846526D02*
X11883259Y-13884621D01*
X11883259Y-13884621D02*
X11883259Y-13932240D01*
X11883259Y-13932240D02*
X11873735Y-13970335D01*
X11873735Y-13970335D02*
X11864211Y-13989383D01*
X11864211Y-13989383D02*
X11854687Y-13998907D01*
X11854687Y-13998907D02*
X11835640Y-14008430D01*
X11835640Y-14008430D02*
X11816592Y-14008430D01*
X11816592Y-14008430D02*
X11797544Y-13998907D01*
X11797544Y-13998907D02*
X11788021Y-13989383D01*
X11788021Y-13989383D02*
X11778497Y-13970335D01*
X11778497Y-13970335D02*
X11768973Y-13932240D01*
X11768973Y-13932240D02*
X11768973Y-13884621D01*
X11768973Y-13884621D02*
X11778497Y-13846526D01*
X11778497Y-13846526D02*
X11788021Y-13827478D01*
X11788021Y-13827478D02*
X11797544Y-13817954D01*
X11797544Y-13817954D02*
X11816592Y-13808430D01*
X11968973Y-14008430D02*
X11968973Y-13875097D01*
X11968973Y-13894145D02*
X11978497Y-13884621D01*
X11978497Y-13884621D02*
X11997544Y-13875097D01*
X11997544Y-13875097D02*
X12026116Y-13875097D01*
X12026116Y-13875097D02*
X12045164Y-13884621D01*
X12045164Y-13884621D02*
X12054687Y-13903668D01*
X12054687Y-13903668D02*
X12054687Y-14008430D01*
X12054687Y-13903668D02*
X12064211Y-13884621D01*
X12064211Y-13884621D02*
X12083259Y-13875097D01*
X12083259Y-13875097D02*
X12111830Y-13875097D01*
X12111830Y-13875097D02*
X12130878Y-13884621D01*
X12130878Y-13884621D02*
X12140402Y-13903668D01*
X12140402Y-13903668D02*
X12140402Y-14008430D01*
X12235640Y-14008430D02*
X12235640Y-13875097D01*
X12235640Y-13894145D02*
X12245164Y-13884621D01*
X12245164Y-13884621D02*
X12264211Y-13875097D01*
X12264211Y-13875097D02*
X12292783Y-13875097D01*
X12292783Y-13875097D02*
X12311830Y-13884621D01*
X12311830Y-13884621D02*
X12321354Y-13903668D01*
X12321354Y-13903668D02*
X12321354Y-14008430D01*
X12321354Y-13903668D02*
X12330878Y-13884621D01*
X12330878Y-13884621D02*
X12349925Y-13875097D01*
X12349925Y-13875097D02*
X12378497Y-13875097D01*
X12378497Y-13875097D02*
X12397545Y-13884621D01*
X12397545Y-13884621D02*
X12407068Y-13903668D01*
X12407068Y-13903668D02*
X12407068Y-14008430D01*
X12797545Y-13798907D02*
X12626116Y-14056049D01*
X13054687Y-13808430D02*
X13073735Y-13808430D01*
X13073735Y-13808430D02*
X13092783Y-13817954D01*
X13092783Y-13817954D02*
X13102307Y-13827478D01*
X13102307Y-13827478D02*
X13111830Y-13846526D01*
X13111830Y-13846526D02*
X13121354Y-13884621D01*
X13121354Y-13884621D02*
X13121354Y-13932240D01*
X13121354Y-13932240D02*
X13111830Y-13970335D01*
X13111830Y-13970335D02*
X13102307Y-13989383D01*
X13102307Y-13989383D02*
X13092783Y-13998907D01*
X13092783Y-13998907D02*
X13073735Y-14008430D01*
X13073735Y-14008430D02*
X13054687Y-14008430D01*
X13054687Y-14008430D02*
X13035640Y-13998907D01*
X13035640Y-13998907D02*
X13026116Y-13989383D01*
X13026116Y-13989383D02*
X13016592Y-13970335D01*
X13016592Y-13970335D02*
X13007068Y-13932240D01*
X13007068Y-13932240D02*
X13007068Y-13884621D01*
X13007068Y-13884621D02*
X13016592Y-13846526D01*
X13016592Y-13846526D02*
X13026116Y-13827478D01*
X13026116Y-13827478D02*
X13035640Y-13817954D01*
X13035640Y-13817954D02*
X13054687Y-13808430D01*
X13207068Y-13989383D02*
X13216592Y-13998907D01*
X13216592Y-13998907D02*
X13207068Y-14008430D01*
X13207068Y-14008430D02*
X13197545Y-13998907D01*
X13197545Y-13998907D02*
X13207068Y-13989383D01*
X13207068Y-13989383D02*
X13207068Y-14008430D01*
X13407068Y-14008430D02*
X13292783Y-14008430D01*
X13349926Y-14008430D02*
X13349926Y-13808430D01*
X13349926Y-13808430D02*
X13330878Y-13837002D01*
X13330878Y-13837002D02*
X13311830Y-13856049D01*
X13311830Y-13856049D02*
X13292783Y-13865573D01*
X13483259Y-13827478D02*
X13492783Y-13817954D01*
X13492783Y-13817954D02*
X13511830Y-13808430D01*
X13511830Y-13808430D02*
X13559449Y-13808430D01*
X13559449Y-13808430D02*
X13578497Y-13817954D01*
X13578497Y-13817954D02*
X13588021Y-13827478D01*
X13588021Y-13827478D02*
X13597545Y-13846526D01*
X13597545Y-13846526D02*
X13597545Y-13865573D01*
X13597545Y-13865573D02*
X13588021Y-13894145D01*
X13588021Y-13894145D02*
X13473735Y-14008430D01*
X13473735Y-14008430D02*
X13597545Y-14008430D01*
X13768973Y-13808430D02*
X13730878Y-13808430D01*
X13730878Y-13808430D02*
X13711830Y-13817954D01*
X13711830Y-13817954D02*
X13702307Y-13827478D01*
X13702307Y-13827478D02*
X13683259Y-13856049D01*
X13683259Y-13856049D02*
X13673735Y-13894145D01*
X13673735Y-13894145D02*
X13673735Y-13970335D01*
X13673735Y-13970335D02*
X13683259Y-13989383D01*
X13683259Y-13989383D02*
X13692783Y-13998907D01*
X13692783Y-13998907D02*
X13711830Y-14008430D01*
X13711830Y-14008430D02*
X13749926Y-14008430D01*
X13749926Y-14008430D02*
X13768973Y-13998907D01*
X13768973Y-13998907D02*
X13778497Y-13989383D01*
X13778497Y-13989383D02*
X13788021Y-13970335D01*
X13788021Y-13970335D02*
X13788021Y-13922716D01*
X13788021Y-13922716D02*
X13778497Y-13903668D01*
X13778497Y-13903668D02*
X13768973Y-13894145D01*
X13768973Y-13894145D02*
X13749926Y-13884621D01*
X13749926Y-13884621D02*
X13711830Y-13884621D01*
X13711830Y-13884621D02*
X13692783Y-13894145D01*
X13692783Y-13894145D02*
X13683259Y-13903668D01*
X13683259Y-13903668D02*
X13673735Y-13922716D01*
X13911830Y-13808430D02*
X13930878Y-13808430D01*
X13930878Y-13808430D02*
X13949926Y-13817954D01*
X13949926Y-13817954D02*
X13959449Y-13827478D01*
X13959449Y-13827478D02*
X13968973Y-13846526D01*
X13968973Y-13846526D02*
X13978497Y-13884621D01*
X13978497Y-13884621D02*
X13978497Y-13932240D01*
X13978497Y-13932240D02*
X13968973Y-13970335D01*
X13968973Y-13970335D02*
X13959449Y-13989383D01*
X13959449Y-13989383D02*
X13949926Y-13998907D01*
X13949926Y-13998907D02*
X13930878Y-14008430D01*
X13930878Y-14008430D02*
X13911830Y-14008430D01*
X13911830Y-14008430D02*
X13892783Y-13998907D01*
X13892783Y-13998907D02*
X13883259Y-13989383D01*
X13883259Y-13989383D02*
X13873735Y-13970335D01*
X13873735Y-13970335D02*
X13864211Y-13932240D01*
X13864211Y-13932240D02*
X13864211Y-13884621D01*
X13864211Y-13884621D02*
X13873735Y-13846526D01*
X13873735Y-13846526D02*
X13883259Y-13827478D01*
X13883259Y-13827478D02*
X13892783Y-13817954D01*
X13892783Y-13817954D02*
X13911830Y-13808430D01*
X14054688Y-13808430D02*
X14054688Y-13846526D01*
X14130878Y-13808430D02*
X14130878Y-13846526D01*
X14426116Y-14084621D02*
X14416592Y-14075097D01*
X14416592Y-14075097D02*
X14397545Y-14046526D01*
X14397545Y-14046526D02*
X14388021Y-14027478D01*
X14388021Y-14027478D02*
X14378497Y-13998907D01*
X14378497Y-13998907D02*
X14368973Y-13951287D01*
X14368973Y-13951287D02*
X14368973Y-13913192D01*
X14368973Y-13913192D02*
X14378497Y-13865573D01*
X14378497Y-13865573D02*
X14388021Y-13837002D01*
X14388021Y-13837002D02*
X14397545Y-13817954D01*
X14397545Y-13817954D02*
X14416592Y-13789383D01*
X14416592Y-13789383D02*
X14426116Y-13779859D01*
X14588021Y-13875097D02*
X14588021Y-14008430D01*
X14540402Y-13798907D02*
X14492783Y-13941764D01*
X14492783Y-13941764D02*
X14616592Y-13941764D01*
X14845164Y-14008430D02*
X14845164Y-13808430D01*
X14930878Y-14008430D02*
X14930878Y-13903668D01*
X14930878Y-13903668D02*
X14921354Y-13884621D01*
X14921354Y-13884621D02*
X14902307Y-13875097D01*
X14902307Y-13875097D02*
X14873735Y-13875097D01*
X14873735Y-13875097D02*
X14854688Y-13884621D01*
X14854688Y-13884621D02*
X14845164Y-13894145D01*
X15054688Y-14008430D02*
X15035640Y-13998907D01*
X15035640Y-13998907D02*
X15026116Y-13989383D01*
X15026116Y-13989383D02*
X15016592Y-13970335D01*
X15016592Y-13970335D02*
X15016592Y-13913192D01*
X15016592Y-13913192D02*
X15026116Y-13894145D01*
X15026116Y-13894145D02*
X15035640Y-13884621D01*
X15035640Y-13884621D02*
X15054688Y-13875097D01*
X15054688Y-13875097D02*
X15083259Y-13875097D01*
X15083259Y-13875097D02*
X15102307Y-13884621D01*
X15102307Y-13884621D02*
X15111831Y-13894145D01*
X15111831Y-13894145D02*
X15121354Y-13913192D01*
X15121354Y-13913192D02*
X15121354Y-13970335D01*
X15121354Y-13970335D02*
X15111831Y-13989383D01*
X15111831Y-13989383D02*
X15102307Y-13998907D01*
X15102307Y-13998907D02*
X15083259Y-14008430D01*
X15083259Y-14008430D02*
X15054688Y-14008430D01*
X15235640Y-14008430D02*
X15216592Y-13998907D01*
X15216592Y-13998907D02*
X15207069Y-13979859D01*
X15207069Y-13979859D02*
X15207069Y-13808430D01*
X15388021Y-13998907D02*
X15368973Y-14008430D01*
X15368973Y-14008430D02*
X15330878Y-14008430D01*
X15330878Y-14008430D02*
X15311831Y-13998907D01*
X15311831Y-13998907D02*
X15302307Y-13979859D01*
X15302307Y-13979859D02*
X15302307Y-13903668D01*
X15302307Y-13903668D02*
X15311831Y-13884621D01*
X15311831Y-13884621D02*
X15330878Y-13875097D01*
X15330878Y-13875097D02*
X15368973Y-13875097D01*
X15368973Y-13875097D02*
X15388021Y-13884621D01*
X15388021Y-13884621D02*
X15397545Y-13903668D01*
X15397545Y-13903668D02*
X15397545Y-13922716D01*
X15397545Y-13922716D02*
X15302307Y-13941764D01*
X15473735Y-13998907D02*
X15492783Y-14008430D01*
X15492783Y-14008430D02*
X15530878Y-14008430D01*
X15530878Y-14008430D02*
X15549926Y-13998907D01*
X15549926Y-13998907D02*
X15559450Y-13979859D01*
X15559450Y-13979859D02*
X15559450Y-13970335D01*
X15559450Y-13970335D02*
X15549926Y-13951287D01*
X15549926Y-13951287D02*
X15530878Y-13941764D01*
X15530878Y-13941764D02*
X15502307Y-13941764D01*
X15502307Y-13941764D02*
X15483259Y-13932240D01*
X15483259Y-13932240D02*
X15473735Y-13913192D01*
X15473735Y-13913192D02*
X15473735Y-13903668D01*
X15473735Y-13903668D02*
X15483259Y-13884621D01*
X15483259Y-13884621D02*
X15502307Y-13875097D01*
X15502307Y-13875097D02*
X15530878Y-13875097D01*
X15530878Y-13875097D02*
X15549926Y-13884621D01*
X15626116Y-14084621D02*
X15635640Y-14075097D01*
X15635640Y-14075097D02*
X15654688Y-14046526D01*
X15654688Y-14046526D02*
X15664212Y-14027478D01*
X15664212Y-14027478D02*
X15673735Y-13998907D01*
X15673735Y-13998907D02*
X15683259Y-13951287D01*
X15683259Y-13951287D02*
X15683259Y-13913192D01*
X15683259Y-13913192D02*
X15673735Y-13865573D01*
X15673735Y-13865573D02*
X15664212Y-13837002D01*
X15664212Y-13837002D02*
X15654688Y-13817954D01*
X15654688Y-13817954D02*
X15635640Y-13789383D01*
X15635640Y-13789383D02*
X15626116Y-13779859D01*
M02*
