M48
; DRILL file {KiCad 8.0.1} date 2024-04-26T19:45:17-0700
; FORMAT={-:-/ absolute / metric / decimal}
; #@! TF.CreationDate,2024-04-26T19:45:17-07:00
; #@! TF.GenerationSoftware,Kicad,Pcbnew,8.0.1
; #@! TF.FileFunction,Plated,1,2,PTH
FMAT,2
METRIC
; #@! TA.AperFunction,Plated,PTH,ComponentDrill
T1C0.500
; #@! TA.AperFunction,Plated,PTH,ViaDrill
T2C0.600
; #@! TA.AperFunction,Plated,PTH,ComponentDrill
T3C1.016
; #@! TA.AperFunction,Plated,PTH,ComponentDrill
T4C1.100
; #@! TA.AperFunction,Plated,PTH,ComponentDrill
T5C1.520
; #@! TA.AperFunction,Plated,PTH,ComponentDrill
T6C3.200
%
G90
G05
T1
X122.6Y-71.0
X122.6Y-113.0
X123.303Y-69.303
X123.303Y-72.697
X123.303Y-111.303
X123.303Y-114.697
X125.0Y-68.6
X125.0Y-73.4
X125.0Y-110.6
X125.0Y-115.4
X126.697Y-69.303
X126.697Y-72.697
X126.697Y-111.303
X126.697Y-114.697
X127.4Y-71.0
X127.4Y-113.0
X137.6Y-71.0
X138.303Y-69.303
X138.303Y-72.697
X140.0Y-68.6
X140.0Y-73.4
X141.697Y-69.303
X141.697Y-72.697
X142.4Y-71.0
X159.6Y-102.0
X160.303Y-100.303
X160.303Y-103.697
X162.0Y-99.6
X162.0Y-104.4
X163.697Y-100.303
X163.697Y-103.697
X164.4Y-102.0
T2
X122.22Y-81.9
X123.15Y-75.22
X124.5Y-79.0
X135.0Y-107.0
T3
X148.25Y-68.67
X148.25Y-71.21
X148.25Y-73.75
X150.75Y-81.5
X153.29Y-81.5
X155.83Y-81.5
X158.37Y-81.5
X160.91Y-81.5
X163.45Y-81.5
T4
X125.0Y-83.92
X125.0Y-86.46
X125.0Y-89.0
X125.0Y-100.54
X125.0Y-103.08
X125.0Y-105.62
X132.0Y-77.92
X132.0Y-88.08
X132.0Y-93.0
X132.0Y-103.16
X136.0Y-86.92
X136.0Y-97.08
X136.0Y-103.0
X136.0Y-113.16
T5
X115.0Y-70.0
X115.0Y-75.08
X115.0Y-81.0
X115.0Y-86.08
X115.0Y-97.92
X115.0Y-103.0
X115.0Y-108.92
X115.0Y-114.0
X144.92Y-112.5
X150.0Y-112.5
X157.92Y-112.5
X163.0Y-112.5
T6
X125.0Y-71.0
X125.0Y-113.0
X140.0Y-71.0
X162.0Y-102.0
M30
